Malayalam Codeblock (UNICODE 10.0)
Various Signs
------------
ഀ 0D00  - Malayalam Sign Combining Anusvara Above
 ഁ 0D01 - Malayalam Sign Chandrabindu
 ം  0D02- MALAYALAM SIGN ANUSVARA
 ഃ  0D03- MALAYALAM SIGN VISARGA

Independent Vowels(0D05-0D14)
-----------------
0D05 - അ - A
0D06 - ആ - AA
0D07 - ഇ - I
0D08 - ഈ - II
0D09 - ഉ - U
0D0A - ഊ - UU
0D0B - ഋ - Vocalic R
0D0C - ഌ - Vocalic L
0D0D - reserved
0D0E - എ - E
0D0F - ഏ - EE
0D10 - ഐ - AI
0D11 - reserved
0D12 - ഒ - O
0D13 - ഓ - OO
0D14 - ഔ - AU

Consonants
------------
0D15:0D19 - ക ഖ ഗ ഘ ങ
0D1A:0D1E - ച ഛ ജ ഝ ഞ
0D1F:0D23 -  ട ഠ ഡ ഢ ണ
0D24:0D28 - ത ഥ ദ ധ ന
0D29 - ഩ
0D2A:0D2E - പ ഫ ബ ഭ മ
0D2F - യ
0D30 - ര
0D31 - റ
0D32 - ല
0D33 - ള
0D34 - ഴ
0D35 - വ
0D36 - ശ
0D37 - ഷ
0D38 - സ
0D39 - ഹ
0D3A - ഺ

Variant Shape Viramas
-------------------
഻ 0D3B -Malayalam Sign Vertical Bar virama
഼ 0D3C -Malayalam Sign Circular Virama

Addition for Sanskrit
-------------------
0D3D - ഽ - Malayalam Sign Avagraha(Praslesham)

Dependent vowel signs
-------------------
 ാ 0D3E
 ി 0D3F
 ീ 0D40
 ു 0D41
 ൂ 0D42
 ൃ 0D43
 ൄ 0D44
0D45 reserved
 െ 0D46
 േ 0D47
 ൈ 0D48

Two-part dependent vowel signs
----------------------------
 ൊ 0D4A
 ോ 0D4B
 ൌ 0D4C

Virama
------
 ് 0D4D

Dot Reph
-------
ൎ 0D4E

Measurement symbol
------------------
0D4F - ൏ - Malayalam Sign Para - measure rice

Chillu Letters
-------------
0D54 - ൔ
0D55 -  ൕ
0D56 -  ൖ

Dependent vowel sign
-------------------
 ൗ - 0D57 - AU LENGTH MARK

Minor fractions
-------------
0D58 - ൘ - MALAYALAM FRACTION ONE ONE-HUNDRED-AND-SIXTIETH = arakaani=1/160
0D59 - ൙ - MALAYALAM FRACTION ONE FORTIETH = aramaa=1/40
0D5A - ൚ - MALAYALAM FRACTION THREE EIGHTIETHS= muunnukaani=3/80
0D5B - ൛- MALAYALAM FRACTION ONE TWENTIETH= orumaa=1/20
0D5C - ൜- MALAYALAM FRACTION ONE TENTH= rantumaa=1/10
0D5D - ൝- MALAYALAM FRACTION THREE TWENTIETHS= muunnumaa=3/10
0D5E - ൞ - MALAYALAM FRACTION ONE FIFTH = naalumaa=1/5

Additional historic vowel
--------------------
0D5F -  ൟ -MALAYALAM LETTER ARCHAIC II

Additional vowels for Sanskrit
-------------------------
0D60 - ൠ - MALAYALAM LETTER VOCALIC RR
0D61 - ൡ - MALAYALAM LETTER VOCALIC LL

Dependent vowels
----------------
 ൢ - 0D62 - MALAYALAM VOWEL SIGN VOCALIC L
 ൣ - 0D63 -  MALAYALAM VOWEL SIGN VOCALIC LL

Malayalam Numerals(0D66:0D6F)
--------------------
൦ ൧ ൨ ൩ ൪ ൫ ൬ ൭ ൮ ൯

Malayalam numbers
------------------
0D70 ൰ MALAYALAM NUMBER TEN
0D71 ൱ MALAYALAM NUMBER ONE HUNDRED
0D72 ൲ MALAYALAM NUMBER ONE THOUSAND

Fractions
--------

0D73 - ൳ - MALAYALAM FRACTION ONE QUARTER= kaal=1/4
0D74 - ൴ - MALAYALAM FRACTION ONE HALF= ara=1/2
0D75 - ൵ - MALAYALAM FRACTION THREE QUARTERS= mukkaal=3/4
0D76 - ൶ - MALAYALAM FRACTION ONE SIXTEENTH= maakaani=1/60
0D77- ൷ - MALAYALAM FRACTION ONE EIGHTH= arakkaal=1/8
0D78- ൸- MALAYALAM FRACTION THREE SIXTEENTHS= muntaani=3/16

VARIOUS USE CASES
----------------


Date Marks
----------
10൹
10-ാം
6 ാം

Continuous Vowel Signs
----------------------
എടാാാാ എടാാാാാാാാ
ാ ി ു
1-ാം, 1-ാമത്തെ, 1ാം, 1ാമത്തെ

Vertical bar virama
--------------------
഻
സ഻
Anuswara above
--------------
ഀ
സഀ
ദുഀ
തുഀ
ഗുഀ
Circular virama
---------------
഼
ത഼
തു഼
തു഼ഷ


Arabic Numerals
--------------------
0 1 2 3 4 5 6 7 8 9

Conjuncts and Signs
-------------------

ക കു കൂ കൃ കൄ കൢ കൣ ൎക ൎകു ൎകൂ ക് കു് ക഻ ക഼ കഀ കം കഃ കഁ

ക്ക ക്കു ക്കൂ ക്കൃ ക്കൄ ക്കൢ ക്കൣ ൎക്ക ൎക്കു ൎക്കൂ ക്ക് ക്കു്  ക്ക഻ ക്ക഼ ക്കഀ ക്കം ക്കഃ

ക്ട ക്ടു ക്ടൂ ക്ടൃ ക്ടൄ ക്ടൢ ക്ടൣ ൎക്ട ൎക്ടു ൎക്ടൂ ക്ട് ക്ടു്  ക്ട഻ ക്ട഼ ക്ടഀ ക്ടം ക്ടഃ

ക്ട്ട ക്ട്ടു ക്ട്ടൂ ക്ട്ടൃ ക്ട്ടൄ ക്ട്ടൢ ക്ട്ടൣ ൎക്ട്ട ൎക്ട്ടു ൎക്ട്ടൂ ക്ട്ട് ക്ട്ടു്  ക്ട്ട഻ ക്ട്ട഼ ക്ട്ടഀ ക്ട്ടം ക്ട്ടഃ

ക്ത ക്തു ക്തൂ ക്തൃ ക്തൄ ക്തൢ ക്തൣ ൎക്ത ൎക്തു ൎക്തൂ ക്ത് ക്തു്  ക്ത഻ ക്ത഼ ക്തഀ ക്തം ക്തഃ

ക്ത്ത

ക്ന ക്നു ക്നൂ ക്നൃ ക്നൄ ക്നൢ ക്നൣ ൎക്ന ൎക്നു ൎക്നൂ ക്ന് ക്നു് ക്ന഻ ക്ന഼ ക്നഀ ക്നം ക്നഃ

ക്ന്ന

ക്മ ക്മു ക്മൂ ക്മൃ ക്മൄ ക്മൢ ക്മൣ ൎക്മ ൎക്മു ൎക്മൂ ക്മ് ക്മു്  ക്മ഻ ക്മ഼ ക്മഀ ക്മം ക്മഃ

ക്യ ക്യു ക്യൂ ക്യൃ ക്യൄ ക്യൢ ക്യൣ ൎക്യ ൎക്യു ൎക്യൂ ക്യ് ക്യു് ക്യ഻ ക്യ഼ ക്യഀ ക്യം ക്യഃ

ക്ര ക്രു ക്രൂ ക്രൃ ക്രൄ ക്രൢ ക്രൣ ൎക്ര ൎക്രു ൎക്രൂ ക്ര് ക്രു് ക്ര഻ ക്ര഼ ക്രഀ ക്രം ക്രഃ

ക്ല ക്ലു ക്ലൂ ക്ലൃ ക്ലൄ ക്ലൢ ക്ലൣ ൎക്ല ൎക്ലു ൎക്ലൂ ക്ല് ക്ലു് ക്ല഻ ക്ല഼ ക്ലഀ ക്ലം ക്ലഃ

ക്വ ക്വു ക്വൂ ക്വൃ ക്വൄ ക്വൢ ക്വൣ ൎക്വ ൎക്വു ൎക്വൂ ക്വ് ക്വു്  ക്വ഻ ക്വ഼ ക്വഀ ക്വം ക്വഃ

ക്ഷ ക്ഷു ക്ഷൂ ക്ഷൃ ക്ഷൄ ക്ഷൢ ക്ഷൣ ൎക്ഷ ൎക്ഷു ൎക്ഷൂ ക്ഷ് ക്ഷു്  ക്ഷ഻ ക്ഷ഼ ക്ഷഀ ക്ഷം ക്ഷഃ

ഷ്മ ക്ഷ്മു ക്ഷ്മൂ ക്ഷ്മൃ ക്ഷ്മൄ ക്ഷ്മൢ ക്ഷ്മൣ ൎക്ഷ്മ ൎക്ഷ്മു ൎക്ഷ്മൂ ക്ഷ്മ് ക്ഷ്മു്  ക്ഷ്മ഻ ക്ഷ്മ഼ ക്ഷ്മഀ ക്ഷ്മം ക്ഷ്മഃ

ക്ഷ്ണ ക്ഷ്ണു ക്ഷ്ണൂ ക്ഷ്ണൃ ക്ഷ്ണൄ ക്ഷ്ണൢ ക്ഷ്ണൣ ൎക്ഷ്ണ ൎക്ഷ്ണു ൎക്ഷ്ണൂ ക്ഷ്ണ് ക്ഷ്ണു്  ക്ഷ്ണ഻ ക്ഷ്ണ഼ ക്ഷ്ണഀ ക്ഷ്ണം ക്ഷ്ണഃ

ക്സ ക്സു ക്സൂ ക്സൃ ക്സൄ ക്സൢ ക്സൣ ൎക്സ ൎക്സു ൎക്സൂ ക്സ് ക്സു്  ക്സ഻ ക്സ഼ ക്സഀ ക്സം ക്സഃ

ക്റ്റ ക്റ്റു ക്റ്റൂ ക്റ്റൃ ക്റ്റൄ ക്റ്റൢ ക്റ്റൣ ൎക്റ്റ ൎക്റ്റു ൎക്റ്റൂ ക്റ്റ് ക്റ്റു്  ക്റ്റ഻ ക്റ്റ഼ ക്റ്റഀ ക്റ്റം ക്റ്റഃ

ക്ക്യ ക്ക്യു ക്ക്യൂ ക്ക്യൃ ക്ക്യൄ ക്ക്യൢ ക്ക്യൣ ൎക്ക്യ ൎക്ക്യു ൎക്ക്യൂ ക്ക്യ് ക്ക്യു്  ക്ക്യ഻ ക്ക്യ഼ ക്ക്യഀ ക്ക്യം ക്ക്യഃ

ക്ക്ല ക്ക്ലു ക്ക്ലൂ ക്ക്ലൃ ക്ക്ലൄ ക്ക്ലൢ ക്ക്ലൣ ൎക്ക്ല ൎക്ക്ലു ൎക്ക്ലൂ ക്ക്ല് ക്ക്ലു്  ക്ക്ല഻ ക്ക്ല഼ ക്ക്ലഀ ക്ക്ലം ക്ക്ലഃ

ക്ക്വ ക്ക്വു ക്ക്വൂ ക്ക്വൃ ക്ക്വൄ ക്ക്വൢ ക്ക്വൣ ൎക്ക്വ ൎക്ക്വു ൎക്ക്വൂ ക്ക്വ് ക്ക്വു്  ക്ക്വ഻ ക്ക്വ഼ ക്ക്വഀ ക്ക്വം ക്ക്വഃ

ക്ക്ര ക്ക്രു ക്ക്രൂ ക്ക്രൃ ക്ക്രൄ ക്ക്രൢ ക്ക്രൣ ൎക്ക്ര ൎക്ക്രു ൎക്ക്രൂ ക്ക്ര് ക്ക്രു്  ക്ക്ര഻ ക്ക്ര഼ ക്ക്രഀ ക്ക്രം ക്ക്രഃ

ക്ത്ര ക്ത്രു ക്ത്രൂ ക്ത്രൃ ക്ത്രൄ ക്ത്രൢ ക്ത്രൣ ൎക്ത്ര ൎക്ത്രു ൎക്ത്രൂ ക്ത്ര് ക്ത്രു്  ക്ത്ര഻ ക്ത്ര഼ ക്ത്രഀ ക്ത്രം ക്ത്രഃ

ക്ക്ല ക്ക്ലു ക്ക്ലൂ ക്ക്ലൃ ക്ക്ലൄ ക്ക്ലൢ ക്ക്ലൣ ൎക്ക്ല ൎക്ക്ലു ൎക്ക്ലൂ ക്ക്ല് ക്ക്ലു്  ക്ക്ല഻ ക്ക്ല഼ ക്ക്ലഀ ക്ക്ലം ക്ക്ലഃ

ക്ക്വ ക്ക്വു ക്ക്വൂ ക്ക്വൃ ക്ക്വൄ ക്ക്വൢ ക്ക്വൣ ൎക്ക്വ ൎക്ക്വു ൎക്ക്വൂ ക്ക്വ് ക്ക്വു്  ക്ക്വ഻ ക്ക്വ഼ ക്ക്വഀ ക്ക്വം ക്ക്വഃ

ഖ ഖു ഖൂ ഖൃ ഖൄ ഖൢ ഖൣ ൎഖ ൎഖു ൎഖൂ ഖ് ഖു്  ഖ഻ ഖ഼ ഖഀ ഖം ഖഃ

ഗ ഗു ഗൂ ഗൃ ഗൄ ഗൢ ഗൣ ൎഗ ൎഗു ൎഗൂ ഗ് ഗു്  ഗ഻ ഗ഼ ഗഀ ഗം ഗഃ

ഗ്ഗ ഗ്ഗു ഗ്ഗൂ ഗ്ഗൃ ഗ്ഗൄ ഗ്ഗൢ ഗ്ഗൣ ൎഗ്ഗ ൎഗ്ഗു ൎഗ്ഗൂ ഗ്ഗ് ഗ്ഗു്  ഗ്ഗ഻ ഗ്ഗ഼ ഗ്ഗഀ ഗ്ഗം ഗ്ഗഃ

ഗ്ഘ ഗ്ഘു ഗ്ഘൂ ഗ്ഘൃ ഗ്ഘൄ ഗ്ഘൢ ഗ്ഘൣ ൎഗ്ഘ ൎഗ്ഘു ൎഗ്ഘൂ ഗ്ഘ് ഗ്ഘു്  ഗ്ഘ഻ ഗ്ഘ഼ ഗ്ഘഀ ഗ്ഘം ഗ്ഘഃ

ഗ്ദ ഗ്ദു ഗ്ദൂ ഗ്ദൃ ഗ്ദൄ ഗ്ദൢ ഗ്ദൣ ൎഗ്ദ ൎഗ്ദു ൎഗ്ദൂ ഗ്ദ് ഗ്ദു്  ഗ്ദ഻ ഗ്ദ഼ ഗ്ദഀ ഗ്ദം ഗ്ദഃ

ഗ്ന ഗ്നു ഗ്നൂ ഗ്നൃ ഗ്നൄ ഗ്നൢ ഗ്നൣ ൎഗ്ന ൎഗ്നു ൎഗ്നൂ ഗ്ന് ഗ്നു്  ഗ്ന഻ ഗ്ന഼ ഗ്നഀ ഗ്നം ഗ്നഃ

ഗ്മ ഗ്മു ഗ്മൂ ഗ്മൃ ഗ്മൄ ഗ്മൢ ഗ്മൣ ൎഗ്മ ൎഗ്മു ൎഗ്മൂ ഗ്മ് ഗ്മു്  ഗ്മ഻ ഗ്മ഼ ഗ്മഀ ഗ്മം ഗ്മഃ

ഗ്യ ഗ്യു ഗ്യൂ ഗ്യൃ ഗ്യൄ ഗ്യൢ ഗ്യൣ ൎഗ്യ ൎഗ്യു ൎഗ്യൂ ഗ്യ് ഗ്യു്  ഗ്യ഻ ഗ്യ഼ ഗ്യഀ ഗ്യം ഗ്യഃ

ഗ്ര ഗ്രു ഗ്രൂ ഗ്രൃ ഗ്രൄ ഗ്രൢ ഗ്രൣ ൎഗ്ര ൎഗ്രു ൎഗ്രൂ ഗ്ര് ഗ്രു്  ഗ്ര഻ ഗ്ര഼ ഗ്രഀ ഗ്രം ഗ്രഃ

ഗ്ല ഗ്ലു ഗ്ലൂ ഗ്ലൃ ഗ്ലൄ ഗ്ലൢ ഗ്ലൣ ൎഗ്ല ൎഗ്ലു ൎഗ്ലൂ ഗ്ല് ഗ്ലു്  ഗ്ല഻ ഗ്ല഼ ഗ്ലഀ ഗ്ലം ഗ്ലഃ

ഗ്വ ഗ്വു ഗ്വൂ ഗ്വൃ ഗ്വൄ ഗ്വൢ ഗ്വൣ ൎഗ്വ ൎഗ്വു ൎഗ്വൂ ഗ്വ് ഗ്വു്  ഗ്വ഻ ഗ്വ഼ ഗ്വഀ ഗ്വം ഗ്വഃ

ഗ്ഗ്യ ഗ്ഗ്യു ഗ്ഗ്യൂ ഗ്ഗ്യൃ ഗ്ഗ്യൄ ഗ്ഗ്യൢ ഗ്ഗ്യൣ ൎഗ്ഗ്യ ൎഗ്ഗ്യു ൎഗ്ഗ്യൂ ഗ്ഗ്യ് ഗ്ഗ്യു്  ഗ്ഗ്യ഻ ഗ്ഗ്യ഼ ഗ്ഗ്യഀ ഗ്ഗ്യം ഗ്ഗ്യഃ

ഗ്ഗ്ര ഗ്ഗ്രു ഗ്ഗ്രൂ ഗ്ഗ്രൃ ഗ്ഗ്രൄ ഗ്ഗ്രൢ ഗ്ഗ്രൣ ൎഗ്ഗ്ര ൎഗ്ഗ്രു ൎഗ്ഗ്രൂ ഗ്ഗ്ര് ഗ്ഗ്രു്  ഗ്ഗ്ര഻ ഗ്ഗ്ര഼ ഗ്ഗ്രഀ ഗ്ഗ്രം ഗ്ഗ്രഃ

ഗ്ഗ്ല ഗ്ഗ്ലു ഗ്ഗ്ലൂ ഗ്ഗ്ലൃ ഗ്ഗ്ലൄ ഗ്ഗ്ലൢ ഗ്ഗ്ലൣ ൎഗ്ഗ്ല ൎഗ്ഗ്ലു ൎഗ്ഗ്ലൂ ഗ്ഗ്ല് ഗ്ഗ്ലു്  ഗ്ഗ്ല഻ ഗ്ഗ്ല഼ ഗ്ഗ്ലഀ ഗ്ഗ്ലം ഗ്ഗ്ലഃ

ഗ്ഗ്വ ഗ്ഗ്വു ഗ്ഗ്വൂ ഗ്ഗ്വൃ ഗ്ഗ്വൄ ഗ്ഗ്വൢ ഗ്ഗ്വൣ ൎഗ്ഗ്വ ൎഗ്ഗ്വു ൎഗ്ഗ്വൂ ഗ്ഗ്വ് ഗ്ഗ്വു്  ഗ്ഗ്വ഻ ഗ്ഗ്വ഼ ഗ്ഗ്വഀ ഗ്ഗ്വം ഗ്ഗ്വഃ

ഗ്ഘ്യ ഗ്ഘ്യു ഗ്ഘ്യൂ ഗ്ഘ്യൃ ഗ്ഘ്യൄ ഗ്ഘ്യൢ ഗ്ഘ്യൣ ൎഗ്ഘ്യ ൎഗ്ഘ്യു ൎഗ്ഘ്യൂ ഗ്ഘ്യ് ഗ്ഘ്യു്  ഗ്ഘ്യ഻ ഗ്ഘ്യ഼ ഗ്ഘ്യഀ ഗ്ഘ്യം ഗ്ഘ്യഃ

ഗ്ഘ്ര ഗ്ഘ്രു ഗ്ഘ്രൂ ഗ്ഘ്രൃ ഗ്ഘ്രൄ ഗ്ഘ്രൢ ഗ്ഘ്രൣ ൎഗ്ഘ്ര ൎഗ്ഘ്രു ൎഗ്ഘ്രൂ ഗ്ഘ്ര് ഗ്ഘ്രു്  ഗ്ഘ്ര഻ ഗ്ഘ്ര഼ ഗ്ഘ്രഀ ഗ്ഘ്രം ഗ്ഘ്രഃ

ഗ്ഘ്ല ഗ്ഘ്ലു ഗ്ഘ്ലൂ ഗ്ഘ്ലൃ ഗ്ഘ്ലൄ ഗ്ഘ്ലൢ ഗ്ഘ്ലൣ ൎഗ്ഘ്ല ൎഗ്ഘ്ലു ൎഗ്ഘ്ലൂ ഗ്ഘ്ല് ഗ്ഘ്ലു്  ഗ്ഘ്ല഻ ഗ്ഘ്ല഼ ഗ്ഘ്ലഀ ഗ്ഘ്ലം ഗ്ഘ്ലഃ

ഗ്ഘ്വ ഗ്ഘ്വു ഗ്ഘ്വൂ ഗ്ഘ്വൃ ഗ്ഘ്വൄ ഗ്ഘ്വൢ ഗ്ഘ്വൣ ൎഗ്ഘ്വ ൎഗ്ഘ്വു ൎഗ്ഘ്വൂ ഗ്ഘ്വ് ഗ്ഘ്വു്  ഗ്ഘ്വ഻ ഗ്ഘ്വ഼ ഗ്ഘ്വഀ ഗ്ഘ്വം ഗ്ഘ്വഃ

ഗ്ദ്യ ഗ്ദ്യു ഗ്ദ്യൂ ഗ്ദ്യൃ ഗ്ദ്യൄ ഗ്ദ്യൢ ഗ്ദ്യൣ ൎഗ്ദ്യ ൎഗ്ദ്യു ൎഗ്ദ്യൂ ഗ്ദ്യ് ഗ്ദ്യു്  ഗ്ദ്യ഻ ഗ്ദ്യ഼ ഗ്ദ്യഀ ഗ്ദ്യം ഗ്ദ്യഃ

ഗ്ദ്ര ഗ്ദ്രു ഗ്ദ്രൂ ഗ്ദ്രൃ ഗ്ദ്രൄ ഗ്ദ്രൢ ഗ്ദ്രൣ ൎഗ്ദ്ര ൎഗ്ദ്രു ൎഗ്ദ്രൂ ഗ്ദ്ര് ഗ്ദ്രു്  ഗ്ദ്ര഻ ഗ്ദ്ര഼ ഗ്ദ്രഀ ഗ്ദ്രം ഗ്ദ്രഃ

ഗ്ദ്ല ഗ്ദ്ലു ഗ്ദ്ലൂ ഗ്ദ്ലൃ ഗ്ദ്ലൄ ഗ്ദ്ലൢ ഗ്ദ്ലൣ ൎഗ്ദ്ല ൎഗ്ദ്ലു ൎഗ്ദ്ലൂ ഗ്ദ്ല് ഗ്ദ്ലു്  ഗ്ദ്ല഻ ഗ്ദ്ല഼ ഗ്ദ്ലഀ ഗ്ദ്ലം ഗ്ദ്ലഃ

ഗ്ദ്വ ഗ്ദ്വു ഗ്ദ്വൂ ഗ്ദ്വൃ ഗ്ദ്വൄ ഗ്ദ്വൢ ഗ്ദ്വൣ ൎഗ്ദ്വ ൎഗ്ദ്വു ൎഗ്ദ്വൂ ഗ്ദ്വ് ഗ്ദ്വു്  ഗ്ദ്വ഻ ഗ്ദ്വ഼ ഗ്ദ്വഀ ഗ്ദ്വം ഗ്ദ്വഃ

ഗ്ദ്ധ ഗ്ദ്ധു ഗ്ദ്ധൂ ഗ്ദ്ധൃ ഗ്ദ്ധൄ ഗ്ദ്ധൢ ഗ്ദ്ധൣ ൎഗ്ദ്ധ ൎഗ്ദ്ധു ൎഗ്ദ്ധൂ ഗ്ദ്ധ് ഗ്ദ്ധു്  ഗ്ദ്ധ഻ ഗ്ദ്ധ഼ ഗ്ദ്ധഀ ഗ്ദ്ധം ഗ്ദ്ധഃ

ഗ്ദ്ധ്യ ഗ്ദ്ധ്യു ഗ്ദ്ധ്യൂ ഗ്ദ്ധ്യൃ ഗ്ദ്ധ്യൄ ഗ്ദ്ധ്യൢ ഗ്ദ്ധ്യൣ ൎഗ്ദ്ധ്യ ൎഗ്ദ്ധ്യു ൎഗ്ദ്ധ്യൂ ഗ്ദ്ധ്യ് ഗ്ദ്ധ്യു്  ഗ്ദ്ധ്യ഻ ഗ്ദ്ധ്യ഼ ഗ്ദ്ധ്യഀ ഗ്ദ്ധ്യം ഗ്ദ്ധ്യഃ

ഗ്ദ്ധ്ര ഗ്ദ്ധ്രു ഗ്ദ്ധ്രൂ ഗ്ദ്ധ്രൃ ഗ്ദ്ധ്രൄ ഗ്ദ്ധ്രൢ ഗ്ദ്ധ്രൣ ൎഗ്ദ്ധ്ര ൎഗ്ദ്ധ്രു ൎഗ്ദ്ധ്രൂ ഗ്ദ്ധ്ര് ഗ്ദ്ധ്രു്  ഗ്ദ്ധ്ര഻ ഗ്ദ്ധ്ര഼ ഗ്ദ്ധ്രഀ ഗ്ദ്ധ്രം ഗ്ദ്ധ്രഃ

ഗ്ദ്ധ്ല ഗ്ദ്ധ്ലു ഗ്ദ്ധ്ലൂ ഗ്ദ്ധ്ലൃ ഗ്ദ്ധ്ലൄ ഗ്ദ്ധ്ലൢ ഗ്ദ്ധ്ലൣ ൎഗ്ദ്ധ്ല ൎഗ്ദ്ധ്ലു ൎഗ്ദ്ധ്ലൂ ഗ്ദ്ധ്ല് ഗ്ദ്ധ്ലു്  ഗ്ദ്ധ്ല഻ ഗ്ദ്ധ്ല഼ ഗ്ദ്ധ്ലഀ ഗ്ദ്ധ്ലം ഗ്ദ്ധ്ലഃ

ഗ്ദ്ധ്വ ഗ്ദ്ധ്വു ഗ്ദ്ധ്വൂ ഗ്ദ്ധ്വൃ ഗ്ദ്ധ്വൄ ഗ്ദ്ധ്വൢ ഗ്ദ്ധ്വൣ ൎഗ്ദ്ധ്വ ൎഗ്ദ്ധ്വു ൎഗ്ദ്ധ്വൂ ഗ്ദ്ധ്വ് ഗ്ദ്ധ്വു്  ഗ്ദ്ധ്വ഻ ഗ്ദ്ധ്വ഼ ഗ്ദ്ധ്വഀ ഗ്ദ്ധ്വം ഗ്ദ്ധ്വഃ

ഘ ഘു ഘൂ ഘൃ ഘൄ ഘൢ ഘൣ ൎഘ ൎഘു ൎഘൂ ഘ് ഘു്  ഘ഻ ഘ഼ ഘഀ ഘം ഘഃ

ഘ്ന ഘ്നു ഘ്നൂ ഘ്നൃ ഘ്നൄ ഘ്നൢ ഘ്നൣ ൎഘ്ന ൎഘ്നു ൎഘ്നൂ ഘ്ന് ഘ്നു്  ഘ്ന഻ ഘ്ന഼ ഘ്നഀ ഘ്നം ഘ്നഃ

ഘ്ര ഘ്രു ഘ്രൂ ഘ്രൃ ഘ്രൄ ഘ്രൢ ഘ്രൣ ൎഘ്ര ൎഘ്രു ൎഘ്രൂ ഘ്ര് ഘ്രു്  ഘ്ര഻ ഘ്ര഼ ഘ്രഀ ഘ്രം ഘ്രഃ

ഘ്ല ഘ്ലു ഘ്ലൂ ഘ്ലൃ ഘ്ലൄ ഘ്ലൢ ഘ്ലൣ ൎഘ്ല ൎഘ്ലു ൎഘ്ലൂ ഘ്ല് ഘ്ലു്  ഘ്ല഻ ഘ്ല഼ ഘ്ലഀ ഘ്ലം ഘ്ലഃ

ങ ങു ങൂ ങൃ ങൄ ങൢ ങൣ ൎങ ൎങു ൎങൂ ങ് ങു്  ങ഻ ങ഼ ങഀ ങം ങഃ

ങ്കു ങ്കൂ ങ്കൃ ങ്കൄ ങ്കൢ ങ്കൣ ൎങ്ക ൎങ്കു ൎങ്കൂ ങ്ക് ങ്കു് ങ്ക഻ ങ്ക഼ ങ്കഀ ങ്കം ങ്കഃ

ങ്ങ ങ്ങു ങ്ങൂ ങ്ങൃ ങ്ങൄ ങ്ങൢ ങ്ങൣ ൎങ്ങ ൎങ്ങു ൎങ്ങൂ ങ്ങ് ങ്ങു്  ങ്ങ഻ ങ്ങ഼ ങ്ങഀ ങ്ങം ങ്ങഃ

ച ചു ചൂ ചൃ ചൄ ചൢ ചൣ ൎച ൎചു ൎചൂ ച് ചു്  ച഻ ച഼ ചഀ ചം ചഃ

ച്ച ച്ചു ച്ചൂ ച്ചൃ ച്ചൄ ച്ചൢ ച്ചൣ ൎച്ച ൎച്ചു ൎച്ചൂ ച്ച് ച്ചു്  ച്ച഻ ച്ച഼ ച്ചഀ ച്ചം ച്ചഃ

ച്ഛ ച്ഛു ച്ഛൂ ച്ഛൃ ച്ഛൄ ച്ഛൢ ച്ഛൣ ൎച്ഛ ൎച്ഛു ൎച്ഛൂ ച്ഛ് ച്ഛു്  ച്ഛ഻ ച്ഛ഼ ച്ഛഀ ച്ഛം ച്ഛഃ

ച്ഛ്ര ച്ഛ്രു ച്ഛ്രൂ ച്ഛ്രൃ ച്ഛ്രൄ ച്ഛ്രൢ ച്ഛ്രൣ ൎച്ഛ്ര ൎച്ഛ്രു ൎച്ഛ്രൂ ച്ഛ്ര് ച്ഛ്രു്  ച്ഛ്ര഻ ച്ഛ്ര഼ ച്ഛ്രഀ ച്ഛ്രം ച്ഛ്രഃ

ഛ ഛു ഛൂ ഛൃ ഛൄ ഛൢ ഛൣ ൎഛ ൎഛു ൎഛൂ ഛ് ഛു്  ഛ഻ ഛ഼ ഛഀ ഛം ഛഃ

ഛ്ര ഛ്രു ഛ്രൂ ഛ്രൃ ഛ്രൄ ഛ്രൢ ഛ്രൣ ൎഛ്ര ൎഛ്രു ൎഛ്രൂ ഛ്ര് ഛ്രു്  ഛ്ര഻ ഛ്ര഼ ഛ്രഀ ഛ്രം ഛ്രഃ

ജ ജു ജൂ ജൃ ജൄ ജൢ ജൣ ൎജ ൎജു ൎജൂ ജ് ജു്  ജ഻ ജ഼ ജഀ ജം ജഃ

ജ്ജ ജ്ജു ജ്ജൂ ജ്ജൃ ജ്ജൄ ജ്ജൢ ജ്ജൣ ൎജ്ജ ൎജ്ജു ൎജ്ജൂ ജ്ജ് ജ്ജു്  ജ്ജ഻ ജ്ജ഼ ജ്ജഀ ജ്ജം ജ്ജഃ

ജ്ഞ ജ്ഞു ജ്ഞൂ ജ്ഞൃ ജ്ഞൄ ജ്ഞൢ ജ്ഞൣ ൎജ്ഞ ൎജ്ഞു ൎജ്ഞൂ ജ്ഞ് ജ്ഞു്  ജ്ഞ഻ ജ്ഞ഼ ജ്ഞഀ ജ്ഞം ജ്ഞഃ

ജ്ര ജ്രു ജ്രൂ ജ്രൃ ജ്രൄ ജ്രൢ ജ്രൣ ൎജ്ര ൎജ്രു ൎജ്രൂ ജ്ര് ജ്രു്  ജ്ര഻ ജ്ര഼ ജ്രഀ ജ്രം ജ്രഃ

ഝ ഝു ഝൂ ഝൃ ഝൄ ഝൢ ഝൣ ൎഝ ൎഝു ൎഝൂ ഝ് ഝു്  ഝ഻ ഝ഼ ഝഀ ഝം ഝഃ

ഝ്ര ഝ്രു ഝ്രൂ ഝ്രൃ ഝ്രൄ ഝ്രൢ ഝ്രൣ ൎഝ്ര ൎഝ്രു ൎഝ്രൂ ഝ്ര് ഝ്രു്  ഝ്ര഻ ഝ്ര഼ ഝ്രഀ ഝ്രം ഝ്രഃ

ഞ ഞു ഞൂ ഞൃ ഞൄ ഞൢ ഞൣ ൎഞ ൎഞു ൎഞൂ ഞ് ഞു്  ഞ഻ ഞ഼ ഞഀ ഞം ഞഃ

ഞ്ച ഞ്ചു ഞ്ചൂ ഞ്ചൃ ഞ്ചൄ ഞ്ചൢ ഞ്ചൣ ൎഞ്ച ൎഞ്ചു ൎഞ്ചൂ ഞ്ച് ഞ്ചു്  ഞ്ച഻ ഞ്ച഼ ഞ്ചഀ ഞ്ചം ഞ്ചഃ

ഞ്ഞ ഞ്ഞു ഞ്ഞൂ ഞ്ഞൃ ഞ്ഞൄ ഞ്ഞൢ ഞ്ഞൣ ൎഞ്ഞ ൎഞ്ഞു ൎഞ്ഞൂ ഞ്ഞ് ഞ്ഞു്  ഞ്ഞ഻ ഞ്ഞ഼ ഞ്ഞഀ ഞ്ഞം ഞ്ഞഃ

ട ടു ടൂ ടൃ ടൄ ടൢ ടൣ ൎട ൎടു ൎടൂ ട് ടു്  ട഻ ട഼ ടഀ ടം ടഃ

ട്ല ട്ലു ട്ലൂ ട്ലൃ ട്ലൄ ട്ലൢ ട്ലൣ ൎട്ല ൎട്ലു ൎട്ലൂ ട്ല് ട്ലു്  ട്ല഻ ട്ല഼ ട്ലഀ ട്ലം ട്ലഃ ട്ലേ ട്ലോ

ട്ട ട്ടു ട്ടൂ ട്ടൃ ട്ടൄ ട്ടൢ ട്ടൣ ൎട്ട ൎട്ടു ൎട്ടൂ ട്ട് ട്ടു്  ട്ട഻ ട്ട഼ ട്ടഀ ട്ടം ട്ടഃ

ട്ര ട്രു ട്രൂ ട്രൃ ട്രൄ ട്രൢ ട്രൣ ൎട്ര ൎട്രു ൎട്രൂ ട്ര് ട്രു്  ട്ര഻ ട്ര഼ ട്രഀ ട്രം ട്രഃ

ഠ ഠു ഠൂ ഠൃ ഠൄ ഠൢ ഠൣ ൎഠ ൎഠു ൎഠൂ ഠ് ഠു്  ഠ഻ ഠ഼ ഠഀ ഠം ഠഃ

ഡ ഡു ഡൂ ഡൃ ഡൄ ഡൢ ഡൣ ൎഡ ൎഡു ൎഡൂ ഡ് ഡു്  ഡ഻ ഡ഼ ഡഀ ഡം ഡഃ

ഡ്ഡ ഡ്ഡു ഡ്ഡൂ ഡ്ഡൃ ഡ്ഡൄ ഡ്ഡൢ ഡ്ഡൣ ൎഡ്ഡ ൎഡ്ഡു ൎഡ്ഡൂ ഡ്ഡ് ഡ്ഡു്  ഡ്ഡ഻ ഡ്ഡ഼ ഡ്ഡഀ ഡ്ഡം ഡ്ഡഃ

ഡ്ഢ ഡ്ഢു ഡ്ഢൂ ഡ്ഢൃ ഡ്ഢൄ ഡ്ഢൢ ഡ്ഢൣ ൎഡ്ഢ ൎഡ്ഢു ൎഡ്ഢൂ ഡ്ഢ് ഡ്ഢു്  ഡ്ഢ഻ ഡ്ഢ഼ ഡ്ഢഀ ഡ്ഢം ഡ്ഢഃ

ഡ്മ ഡ്മു ഡ്മൂ ഡ്മൃ ഡ്മൄ ഡ്മൢ ഡ്മൣ ൎഡ്മ ൎഡ്മു ൎഡ്മൂ ഡ്മ് ഡ്മു്  ഡ്മ഻ ഡ്മ഼ ഡ്മഀ ഡ്മം ഡ്മഃ

ഡ്ര ഡ്രു ഡ്രൂ ഡ്രൃ ഡ്രൄ ഡ്രൢ ഡ്രൣ ൎഡ്ര ൎഡ്രു ൎഡ്രൂ ഡ്ര് ഡ്രു്  ഡ്ര഻ ഡ്ര഼ ഡ്രഀ ഡ്രം ഡ്രഃ

ഡ്ല ഡ്ലു ഡ്ലൂ ഡ്ലൃ ഡ്ലൄ ഡ്ലൢ ഡ്ലൣ ൎഡ്ല ൎഡ്ലു ൎഡ്ലൂ ഡ്ല് ഡ്ലു്  ഡ്ല഻ ഡ്ല഼ ഡ്ലഀ ഡ്ലം ഡ്ലഃ

ഡ്ഡ്ര ഡ്ഡ്രു ഡ്ഡ്രൂ ഡ്ഡ്രൃ ഡ്ഡ്രൄ ഡ്ഡ്രൢ ഡ്ഡ്രൣ ൎഡ്ഡ്ര ൎഡ്ഡ്രു ൎഡ്ഡ്രൂ ഡ്ഡ്ര് ഡ്ഡ്രു്  ഡ്ഡ്ര഻ ഡ്ഡ്ര഼ ഡ്ഡ്രഀ ഡ്ഡ്രം ഡ്ഡ്രഃ

ഡ്ഢ്ര ഡ്ഢ്രു ഡ്ഢ്രൂ ഡ്ഢ്രൃ ഡ്ഢ്രൄ ഡ്ഢ്രൢ ഡ്ഢ്രൣ ൎഡ്ഢ്ര ൎഡ്ഢ്രു ൎഡ്ഢ്രൂ ഡ്ഢ്ര് ഡ്ഢ്രു്  ഡ്ഢ്ര഻ ഡ്ഢ്ര഼ ഡ്ഢ്രഀ ഡ്ഢ്രം ഡ്ഢ്രഃ

ഡ്മ്ര ഡ്മ്രു ഡ്മ്രൂ ഡ്മ്രൃ ഡ്മ്രൄ ഡ്മ്രൢ ഡ്മ്രൣ ൎഡ്മ്ര ൎഡ്മ്രു ൎഡ്മ്രൂ ഡ്മ്ര് ഡ്മ്രു്  ഡ്മ്ര഻ ഡ്മ്ര഼ ഡ്മ്രഀ ഡ്മ്രം ഡ്മ്രഃ

ഢ ഢു ഢൂ ഢൃ ഢൄ ഢൢ ഢൣ ൎഢ ൎഢു ൎഢൂ ഢ് ഢു്  ഢ഻ ഢ഼ ഢഀ ഢം ഢഃ

ഢ്ര ഢ്രു ഢ്രൂ ഢ്രൃ ഢ്രൄ ഢ്രൢ ഢ്രൣ ൎഢ്ര ൎഢ്രു ൎഢ്രൂ ഢ്ര് ഢ്രു്  ഢ്ര഻ ഢ്ര഼ ഢ്രഀ ഢ്രം ഢ്രഃ

ണ ണു ണൂ ണൃ ണൄ ണൢ ണൣ ൎണ ൎണു ൎണൂ ണ് ണു്  ണ഻ ണ഼ ണഀ ണം ണഃ

ണ്ട ണ്ടു ണ്ടൂ ണ്ടൃ ണ്ടൄ ണ്ടൢ ണ്ടൣ ൎണ്ട ൎണ്ടു ൎണ്ടൂ ണ്ട് ണ്ടു്  ണ്ട഻ ണ്ട഼ ണ്ടഀ ണ്ടം ണ്ടഃ

ണ്ട്ര ണ്ട്രു ണ്ട്രൂ ണ്ട്രൃ ണ്ട്രൄ ണ്ട്രൢ ണ്ട്രൣ ൎണ്ട്ര ൎണ്ട്രു ൎണ്ട്രൂ ണ്ട്ര് ണ്ട്രു്  ണ്ട്ര഻ ണ്ട്ര഼ ണ്ട്രഀ ണ്ട്രം ണ്ട്രഃ

ണ്ഠ ണ്ഠു ണ്ഠൂ ണ്ഠൃ ണ്ഠൄ ണ്ഠൢ ണ്ഠൣ ൎണ്ഠ ൎണ്ഠു ൎണ്ഠൂ ണ്ഠ് ണ്ഠു്  ണ്ഠ഻ ണ്ഠ഼ ണ്ഠഀ ണ്ഠം ണ്ഠഃ

ണ്ഡ ണ്ഡു ണ്ഡൂ ണ്ഡൃ ണ്ഡൄ ണ്ഡൢ ണ്ഡൣ ൎണ്ഡ ൎണ്ഡു ൎണ്ഡൂ ണ്ഡ് ണ്ഡു്  ണ്ഡ഻ ണ്ഡ഼ ണ്ഡഀ ണ്ഡം ണ്ഡഃ

ണ്ഡ്ര ണ്ഡ്രു ണ്ഡ്രൂ ണ്ഡ്രൃ ണ്ഡ്രൄ ണ്ഡ്രൢ ണ്ഡ്രൣ ൎണ്ഡ്ര ൎണ്ഡ്രു ൎണ്ഡ്രൂ ണ്ഡ്ര് ണ്ഡ്രു്  ണ്ഡ്ര഻ ണ്ഡ്ര഼ ണ്ഡ്രഀ ണ്ഡ്രം ണ്ഡ്രഃ

ണ്ഢ ണ്ഢു ണ്ഢൂ ണ്ഢൃ ണ്ഢൄ ണ്ഢൢ ണ്ഢൣ ൎണ്ഢ ൎണ്ഢു ൎണ്ഢൂ ണ്ഢ് ണ്ഢു്  ണ്ഢ഻ ണ്ഢ഼ ണ്ഢഀ ണ്ഢം ണ്ഢഃ

ണ്ഢ്ര ണ്ഢ്രു ണ്ഢ്രൂ ണ്ഢ്രൃ ണ്ഢ്രൄ ണ്ഢ്രൢ ണ്ഢ്രൣ ൎണ്ഢ്ര ൎണ്ഢ്രു ൎണ്ഢ്രൂ ണ്ഢ്ര് ണ്ഢ്രു്  ണ്ഢ്ര഻ ണ്ഢ്ര഼ ണ്ഢ്രഀ ണ്ഢ്രം ണ്ഢ്രഃ

ണ്ണ ണ്ണു ണ്ണൂ ണ്ണൃ ണ്ണൄ ണ്ണൢ ണ്ണൣ ൎണ്ണ ൎണ്ണു ൎണ്ണൂ ണ്ണ് ണ്ണു്  ണ്ണ഻ ണ്ണ഼ ണ്ണഀ ണ്ണം ണ്ണഃ

ണ്മ ണ്മു ണ്മൂ ണ്മൃ ണ്മൄ ണ്മൢ ണ്മൣ ൎണ്മ ൎണ്മു ൎണ്മൂ ണ്മ് ണ്മു്  ണ്മ഻ ണ്മ഼ ണ്മഀ ണ്മം ണ്മഃ

ണ്മ്ര ണ്മ്രു ണ്മ്രൂ ണ്മ്രൃ ണ്മ്രൄ ണ്മ്രൢ ണ്മ്രൣ ൎണ്മ്ര ൎണ്മ്രു ൎണ്മ്രൂ ണ്മ്ര് ണ്മ്രു്  ണ്മ്ര഻ ണ്മ്ര഼ ണ്മ്രഀ ണ്മ്രം ണ്മ്രഃ

ത തു തൂ തൃ തൄ തൢ തൣ ൎത ൎതു ൎതൂ ത് തു്  ത഻ ത഼ തഀ തം തഃ

ത്ത ത്തു ത്തൂ ത്തൃ ത്തൄ ത്തൢ ത്തൣ ൎത്ത ൎത്തു ൎത്തൂ ത്ത് ത്തു്  ത്ത഻ ത്ത഼ ത്തഀ ത്തം ത്തഃ

ത്ത്ര ത്ത്രു ത്ത്രൂ ത്ത്രൃ ത്ത്രൄ ത്ത്രൢ ത്ത്രൣ ൎത്ത്ര ൎത്ത്രു ൎത്ത്രൂ ത്ത്ര് ത്ത്രു്  ത്ത്ര഻ ത്ത്ര഼ ത്ത്രഀ ത്ത്രം ത്ത്രഃ

ത്ഥ ത്ഥു ത്ഥൂ ത്ഥൃ ത്ഥൄ ത്ഥൢ ത്ഥൣ ൎത്ഥ ൎത്ഥു ൎത്ഥൂ ത്ഥ് ത്ഥു്  ത്ഥ഻ ത്ഥ഼ ത്ഥഀ ത്ഥം ത്ഥഃ

ത്ന ത്നു ത്നൂ ത്നൃ ത്നൄ ത്നൢ ത്നൣ ൎത്ന ൎത്നു ൎത്നൂ ത്ന് ത്നു്  ത്ന഻ ത്ന഼ ത്നഀ ത്നം ത്നഃ

ത്ഭ ത്ഭു ത്ഭൂ ത്ഭൃ ത്ഭൄ ത്ഭൢ ത്ഭൣ ൎത്ഭ ൎത്ഭു ൎത്ഭൂ ത്ഭ് ത്ഭു്  ത്ഭ഻ ത്ഭ഼ ത്ഭഀ ത്ഭം ത്ഭഃ

ത്ഭ്ര ത്ഭ്രു ത്ഭ്രൂ ത്ഭ്രൃ ത്ഭ്രൄ ത്ഭ്രൢ ത്ഭ്രൣ ൎത്ഭ്ര ൎത്ഭ്രു ൎത്ഭ്രൂ ത്ഭ്ര് ത്ഭ്രു്  ത്ഭ്ര഻ ത്ഭ്ര഼ ത്ഭ്രഀ ത്ഭ്രം ത്ഭ്രഃ

ത്മ ത്മു ത്മൂ ത്മൃ ത്മൄ ത്മൢ ത്മൣ ൎത്മ ൎത്മു ൎത്മൂ ത്മ് ത്മു്  ത്മ഻ ത്മ഼ ത്മഀ ത്മം ത്മഃ

ത്മ്ര ത്മ്രു ത്മ്രൂ ത്മ്രൃ ത്മ്രൄ ത്മ്രൢ ത്മ്രൣ ൎത്മ്ര ൎത്മ്രു ൎത്മ്രൂ ത്മ്ര് ത്മ്രു്  ത്മ്ര഻ ത്മ്ര഼ ത്മ്രഀ ത്മ്രം ത്മ്രഃ

ത്ര ത്രു ത്രൂ ത്രൃ ത്രൄ ത്രൢ ത്രൣ ൎത്ര ൎത്രു ൎത്രൂ ത്ര് ത്രു്  ത്ര഻ ത്ര഼ ത്രഀ ത്രം ത്രഃ

ത്ല ത്ലു ത്ലൂ ത്ലൃ ത്ലൄ ത്ലൢ ത്ലൣ ൎത്ല ൎത്ലു ൎത്ലൂ ത്ല് ത്ലു്  ത്ല഻ ത്ല഼ ത്ലഀ ത്ലം ത്ലഃ

ത്സ ത്സു ത്സൂ ത്സൃ ത്സൄ ത്സൢ ത്സൣ ൎത്സ ൎത്സു ൎത്സൂ ത്സ് ത്സു്  ത്സ഻ ത്സ഼ ത്സഀ ത്സം ത്സഃ

ത്സ്ഥ ത്സ്ഥു ത്സ്ഥൂ ത്സ്ഥൃ ത്സ്ഥൄ ത്സ്ഥൢ ത്സ്ഥൣ ൎത്സ്ഥ ൎത്സ്ഥു ൎത്സ്ഥൂ ത്സ്ഥ് ത്സ്ഥു്  ത്സ്ഥ഻ ത്സ്ഥ഼ ത്സ്ഥഀ ത്സ്ഥം ത്സ്ഥഃ

ത്സ്ര ത്സ്രു ത്സ്രൂ ത്സ്രൃ ത്സ്രൄ ത്സ്രൢ ത്സ്രൣ ൎത്സ്ര ൎത്സ്രു ൎത്സ്രൂ ത്സ്ര് ത്സ്രു്  ത്സ്ര഻ ത്സ്ര഼ ത്സ്രഀ ത്സ്രം ത്സ്രഃ

ത്സ്ന ത്സ്നു ത്സ്നൂ ത്സ്നൃ ത്സ്നൄ ത്സ്നൢ ത്സ്നൣ ൎത്സ്ന ൎത്സ്നു ൎത്സ്നൂ ത്സ്ന് ത്സ്നു്  ത്സ്ന഻ ത്സ്ന഼ ത്സ്നഀ ത്സ്നം ത്സ്നഃ

ത്സ്മ ത്സ്മു ത്സ്മൂ ത്സ്മൃ ത്സ്മൄ ത്സ്മൢ ത്സ്മൣ ൎത്സ്മ ൎത്സ്മു ൎത്സ്മൂ ത്സ്മ് ത്സ്മു്  ത്സ്മ഻ ത്സ്മ഼ ത്സ്മഀ ത്സ്മം ത്സ്മഃ

ത്സ്മ്ര ത്സ്മ്രു ത്സ്മ്രൂ ത്സ്മ്രൃ ത്സ്മ്രൄ ത്സ്മ്രൢ ത്സ്മ്രൣ ൎത്സ്മ്ര ൎത്സ്മ്രു ൎത്സ്മ്രൂ ത്സ്മ്ര് ത്സ്മ്രു്  ത്സ്മ്ര഻ ത്സ്മ്ര഼ ത്സ്മ്രഀ ത്സ്മ്രം ത്സ്മ്രഃ

ഥ ഥു ഥൂ ഥൃ ഥൄ ഥൢ ഥൣ ൎഥ ൎഥു ൎഥൂ ഥ് ഥു്  ഥ഻ ഥ഼ ഥഀ ഥം ഥഃ

ഥ്ന ഥ്നു ഥ്നൂ ഥ്നൃ ഥ്നൄ ഥ്നൢ ഥ്നൣ ൎഥ്ന ൎഥ്നു ൎഥ്നൂ ഥ്ന് ഥ്നു്  ഥ്ന഻ ഥ്ന഼ ഥ്നഀ ഥ്നം ഥ്നഃ

ഥ്മ ഥ്മു ഥ്മൂ ഥ്മൃ ഥ്മൄ ഥ്മൢ ഥ്മൣ ൎഥ്മ ൎഥ്മു ൎഥ്മൂ ഥ്മ് ഥ്മു്  ഥ്മ഻ ഥ്മ഼ ഥ്മഀ ഥ്മം ഥ്മഃ

ഥ്മ്ര ഥ്മ്രു ഥ്മ്രൂ ഥ്മ്രൃ ഥ്മ്രൄ ഥ്മ്രൢ ഥ്മ്രൣ ൎഥ്മ്ര ൎഥ്മ്രു ൎഥ്മ്രൂ ഥ്മ്ര് ഥ്മ്രു്  ഥ്മ്ര഻ ഥ്മ്ര഼ ഥ്മ്രഀ ഥ്മ്രം ഥ്മ്രഃ

ദ ദു ദൂ ദൃ ദൄ ദൢ ദൣ ൎദ ൎദു ൎദൂ ദ് ദു്  ദ഻ ദ഼ ദഀ ദം ദഃ

ദ്ധ ദ്ധു ദ്ധൂ ദ്ധൃ ദ്ധൄ ദ്ധൢ ദ്ധൣ ൎദ്ധ ൎദ്ധു ൎദ്ധൂ ദ്ധ് ദ്ധു്  ദ്ധ഻ ദ്ധ഼ ദ്ധഀ ദ്ധം ദ്ധഃ

ദ്ധ്ന ദ്ധ്നു ദ്ധ്നൂ ദ്ധ്നൃ ദ്ധ്നൄ ദ്ധ്നൢ ദ്ധ്നൣ ൎദ്ധ്ന ൎദ്ധ്നു ൎദ്ധ്നൂ ദ്ധ്ന് ദ്ധ്നു്  ദ്ധ്ന഻ ദ്ധ്ന഼ ദ്ധ്നഀ ദ്ധ്നം ദ്ധ്നഃ

ദ്ധ്മ ദ്ധ്മു ദ്ധ്മൂ ദ്ധ്മൃ ദ്ധ്മൄ ദ്ധ്മൢ ദ്ധ്മൣ ൎദ്ധ്മ ൎദ്ധ്മു ൎദ്ധ്മൂ ദ്ധ്മ് ദ്ധ്മു്  ദ്ധ്മ഻ ദ്ധ്മ഼ ദ്ധ്മഀ ദ്ധ്മം ദ്ധ്മഃ

ദ്ധ്മ്ര ദ്ധ്മ്രു ദ്ധ്മ്രൂ ദ്ധ്മ്രൃ ദ്ധ്മ്രൄ ദ്ധ്മ്രൢ ദ്ധ്മ്രൣ ൎദ്ധ്മ്ര ൎദ്ധ്മ്രു ൎദ്ധ്മ്രൂ ദ്ധ്മ്ര് ദ്ധ്മ്രു്  ദ്ധ്മ്ര഻ ദ്ധ്മ്ര഼ ദ്ധ്മ്രഀ ദ്ധ്മ്രം ദ്ധ്മ്രഃ

ദ്ധ്ര ദ്ധ്രു ദ്ധ്രൂ ദ്ധ്രൃ ദ്ധ്രൄ ദ്ധ്രൢ ദ്ധ്രൣ ൎദ്ധ്ര ൎദ്ധ്രു ൎദ്ധ്രൂ ദ്ധ്ര് ദ്ധ്രു്  ദ്ധ്ര഻ ദ്ധ്ര഼ ദ്ധ്രഀ ദ്ധ്രം ദ്ധ്രഃ

ദ്ര ദ്രു ദ്രൂ ദ്രൃ ദ്രൄ ദ്രൢ ദ്രൣ ൎദ്ര ൎദ്രു ൎദ്രൂ ദ്ര് ദ്രു്  ദ്ര഻ ദ്ര഼ ദ്രഀ ദ്രം ദ്രഃ

ധ ധു ധൂ ധൃ ധൄ ധൢ ധൣ ൎധ ൎധു ൎധൂ ധ് ധു്  ധ഻ ധ഼ ധഀ ധം ധഃ

ധ്ന ധ്നു ധ്നൂ ധ്നൃ ധ്നൄ ധ്നൢ ധ്നൣ ൎധ്ന ൎധ്നു ൎധ്നൂ ധ്ന് ധ്നു്  ധ്ന഻ ധ്ന഼ ധ്നഀ ധ്നം ധ്നഃ

ധ്മ ധ്മു ധ്മൂ ധ്മൃ ധ്മൄ ധ്മൢ ധ്മൣ ൎധ്മ ൎധ്മു ൎധ്മൂ ധ്മ് ധ്മു്  ധ്മ഻ ധ്മ഼ ധ്മഀ ധ്മം ധ്മഃ

ധ്മ്ര ധ്മ്രു ധ്മ്രൂ ധ്മ്രൃ ധ്മ്രൄ ധ്മ്രൢ ധ്മ്രൣ ൎധ്മ്ര ൎധ്മ്രു ൎധ്മ്രൂ ധ്മ്ര് ധ്മ്രു്  ധ്മ്ര഻ ധ്മ്ര഼ ധ്മ്രഀ ധ്മ്രം ധ്മ്രഃ

ധ്ര ധ്രു ധ്രൂ ധ്രൃ ധ്രൄ ധ്രൢ ധ്രൣ ൎധ്ര ൎധ്രു ൎധ്രൂ ധ്ര് ധ്രു്  ധ്ര഻ ധ്ര഼ ധ്രഀ ധ്രം ധ്രഃ

ധ്ല ധ്ലു ധ്ലൂ ധ്ലൃ ധ്ലൄ ധ്ലൢ ധ്ലൣ ൎധ്ല ൎധ്ലു ൎധ്ലൂ ധ്ല് ധ്ലു്  ധ്ല഻ ധ്ല഼ ധ്ലഀ ധ്ലം ധ്ലഃ

ന നു നൂ നൃ നൄ നൢ നൣ ൎന ൎനു ൎനൂ ന് നു്  ന഻ ന഼ നഀ നം നഃ

ന്ത ന്തു ന്തൂ ന്തൃ ന്തൄ ന്തൢ ന്തൣ ൎന്ത ൎന്തു ൎന്തൂ ന്ത് ന്തു്  ന്ത഻ ന്ത഼ ന്തഀ ന്തം ന്തഃ

ന്ഥ ന്ഥു ന്ഥൂ ന്ഥൃ ന്ഥൄ ന്ഥൢ ന്ഥൣ ൎന്ഥ ൎന്ഥു ൎന്ഥൂ ന്ഥ് ന്ഥു്  ന്ഥ഻ ന്ഥ഼ ന്ഥഀ ന്ഥം ന്ഥഃ

ന്ദ ന്ദു ന്ദൂ ന്ദൃ ന്ദൄ ന്ദൢ ന്ദൣ ൎന്ദ ൎന്ദു ൎന്ദൂ ന്ദ് ന്ദു്  ന്ദ഻ ന്ദ഼ ന്ദഀ ന്ദം ന്ദഃ

ന്ധ ന്ധു ന്ധൂ ന്ധൃ ന്ധൄ ന്ധൢ ന്ധൣ ൎന്ധ ൎന്ധു ൎന്ധൂ ന്ധ് ന്ധു്  ന്ധ഻ ന്ധ഼ ന്ധഀ ന്ധം ന്ധഃ

ന്ന ന്നു ന്നൂ ന്നൃ ന്നൄ ന്നൢ ന്നൣ ൎന്ന ൎന്നു ൎന്നൂ ന്ന് ന്നു്  ന്ന഻ ന്ന഼ ന്നഀ ന്നം ന്നഃ

ന്മ ന്മു ന്മൂ ന്മൃ ന്മൄ ന്മൢ ന്മൣ ൎന്മ ൎന്മു ൎന്മൂ ന്മ് ന്മു്  ന്മ഻ ന്മ഼ ന്മഀ ന്മം ന്മഃ

ന്ര ന്രു ന്രൂ ന്രൃ ന്രൄ ന്രൢ ന്രൣ ൎന്ര ൎന്രു ൎന്രൂ ന്ര് ന്രു്  ന്ര഻ ന്ര഼ ന്രഀ ന്രം ന്രഃ

ന്ത്ര ന്ത്രു ന്ത്രൂ ന്ത്രൃ ന്ത്രൄ ന്ത്രൢ ന്ത്രൣ ൎന്ത്ര ൎന്ത്രു ൎന്ത്രൂ ന്ത്ര് ന്ത്രു്  ന്ത്ര഻ ന്ത്ര഼ ന്ത്രഀ ന്ത്രം ന്ത്രഃ

ന്ദ്ര ന്ദ്രു ന്ദ്രൂ ന്ദ്രൃ ന്ദ്രൄ ന്ദ്രൢ ന്ദ്രൣ ൎന്ദ്ര ൎന്ദ്രു ൎന്ദ്രൂ ന്ദ്ര് ന്ദ്രു്  ന്ദ്ര഻ ന്ദ്ര഼ ന്ദ്രഀ ന്ദ്രം ന്ദ്രഃ

ന്ധ്ര ന്ധ്രു ന്ധ്രൂ ന്ധ്രൃ ന്ധ്രൄ ന്ധ്രൢ ന്ധ്രൣ ൎന്ധ്ര ൎന്ധ്രു ൎന്ധ്രൂ ന്ധ്ര് ന്ധ്രു്  ന്ധ്ര഻ ന്ധ്ര഼ ന്ധ്രഀ ന്ധ്രം ന്ധ്രഃ

ന്ന്ര ന്ന്രു ന്ന്രൂ ന്ന്രൃ ന്ന്രൄ ന്ന്രൢ ന്ന്രൣ ൎന്ന്ര ൎന്ന്രു ൎന്ന്രൂ ന്ന്ര് ന്ന്രു്  ന്ന്ര഻ ന്ന്ര഼ ന്ന്രഀ ന്ന്രം ന്ന്രഃ

ന്റ ന്റു ന്റൂ ന്റൃ ന്റൄ ന്റൢ ന്റൣ ൎന്റ ൎന്റു ൎന്റൂ ന്റ് ന്റു്  ന്റ഻ ന്റ഼ ന്റഀ ന്റം ന്റഃ

പ പു പൂ പൃ പൄ പൢ പൣ ൎപ ൎപു ൎപൂ പ് പു്  പ഻ പ഼ പഀ പം പഃ

പ്ട പ്ടു പ്ടൂ പ്ടൃ പ്ടൄ പ്ടൢ പ്ടൣ ൎപ്ട ൎപ്ടു ൎപ്ടൂ പ്ട് പ്ടു്  പ്ട഻ പ്ട഼ പ്ടഀ പ്ടം പ്ടഃ

പ്ത പ്തു പ്തൂ പ്തൃ പ്തൄ പ്തൢ പ്തൣ ൎപ്ത ൎപ്തു ൎപ്തൂ പ്ത് പ്തു്  പ്ത഻ പ്ത഼ പ്തഀ പ്തം പ്തഃ

പ്ന പ്നു പ്നൂ പ്നൃ പ്നൄ പ്നൢ പ്നൣ ൎപ്ന ൎപ്നു ൎപ്നൂ പ്ന് പ്നു്  പ്ന഻ പ്ന഼ പ്നഀ പ്നം പ്നഃ

പ്പ പ്പു പ്പൂ പ്പൃ പ്പൄ പ്പൢ പ്പൣ ൎപ്പ ൎപ്പു ൎപ്പൂ പ്പ് പ്പു്  പ്പ഻ പ്പ഼ പ്പഀ പ്പം പ്പഃ

പ്ഫ പ്ഫു പ്ഫൂ പ്ഫൃ പ്ഫൄ പ്ഫൢ പ്ഫൣ ൎപ്ഫ ൎപ്ഫു ൎപ്ഫൂ പ്ഫ് പ്ഫു്  പ്ഫ഻ പ്ഫ഼ പ്ഫഀ പ്ഫം പ്ഫഃ

പ്ട്ര പ്ട്രു പ്ട്രൂ പ്ട്രൃ പ്ട്രൄ പ്ട്രൢ പ്ട്രൣ ൎപ്ട്ര ൎപ്ട്രു ൎപ്ട്രൂ പ്ട്ര് പ്ട്രു്  പ്ട്ര഻ പ്ട്ര഼ പ്ട്രഀ പ്ട്രം പ്ട്രഃ

പ്ത്ര പ്ത്രു പ്ത്രൂ പ്ത്രൃ പ്ത്രൄ പ്ത്രൢ പ്ത്രൣ ൎപ്ത്ര ൎപ്ത്രു ൎപ്ത്രൂ പ്ത്ര് പ്ത്രു്  പ്ത്ര഻ പ്ത്ര഼ പ്ത്രഀ പ്ത്രം പ്ത്രഃ

പ്ന്ര പ്ന്രു പ്ന്രൂ പ്ന്രൃ പ്ന്രൄ പ്ന്രൢ പ്ന്രൣ ൎപ്ന്ര ൎപ്ന്രു ൎപ്ന്രൂ പ്ന്ര് പ്ന്രു്  പ്ന്ര഻ പ്ന്ര഼ പ്ന്രഀ പ്ന്രം പ്ന്രഃ

പ്പ്ര പ്പ്രു പ്പ്രൂ പ്പ്രൃ പ്പ്രൄ പ്പ്രൢ പ്പ്രൣ ൎപ്പ്ര ൎപ്പ്രു ൎപ്പ്രൂ പ്പ്ര് പ്പ്രു്  പ്പ്ര഻ പ്പ്ര഼ പ്പ്രഀ പ്പ്രം പ്പ്രഃ

പ്ര പ്രു പ്രൂ പ്രൃ പ്രൄ പ്രൢ പ്രൣ ൎപ്ര ൎപ്രു ൎപ്രൂ പ്ര് പ്രു്  പ്ര഻ പ്ര഼ പ്രഀ പ്രം പ്രഃ

പ്ല പ്ലു പ്ലൂ പ്ലൃ പ്ലൄ പ്ലൢ പ്ലൣ ൎപ്ല ൎപ്ലു ൎപ്ലൂ പ്ല് പ്ലു്  പ്ല഻ പ്ല഼ പ്ലഀ പ്ലം പ്ലഃ

പ്സ പ്സു പ്സൂ പ്സൃ പ്സൄ പ്സൢ പ്സൣ ൎപ്സ ൎപ്സു ൎപ്സൂ പ്സ് പ്സു്  പ്സ഻ പ്സ഼ പ്സഀ പ്സം പ്സഃ

പ്സ്ര പ്സ്രു പ്സ്രൂ പ്സ്രൃ പ്സ്രൄ പ്സ്രൢ പ്സ്രൣ ൎപ്സ്ര ൎപ്സ്രു ൎപ്സ്രൂ പ്സ്ര് പ്സ്രു്  പ്സ്ര഻ പ്സ്ര഼ പ്സ്രഀ പ്സ്രം പ്സ്രഃ

ഫ ഫു ഫൂ ഫൃ ഫൄ ഫൢ ഫൣ ൎഫ ൎഫു ൎഫൂ ഫ് ഫു്  ഫ഻ ഫ഼ ഫഀ ഫം ഫഃ

ഫ്ക ഫ്കു ഫ്കൂ ഫ്കൃ ഫ്കൄ ഫ്കൢ ഫ്കൣ ൎഫ്ക ൎഫ്കു ൎഫ്കൂ ഫ്ക് ഫ്കു്  ഫ്ക഻ ഫ്ക഼ ഫ്കഀ ഫ്കം ഫ്കഃ

ഫ്ട ഫ്ടു ഫ്ടൂ ഫ്ടൃ ഫ്ടൄ ഫ്ടൢ ഫ്ടൣ ൎഫ്ട ൎഫ്ടു ൎഫ്ടൂ ഫ്ട് ഫ്ടു്  ഫ്ട഻ ഫ്ട഼ ഫ്ടഀ ഫ്ടം ഫ്ടഃ

ഫ്ത ഫ്തു ഫ്തൂ ഫ്തൃ ഫ്തൄ ഫ്തൢ ഫ്തൣ ൎഫ്ത ൎഫ്തു ൎഫ്തൂ ഫ്ത് ഫ്തു്  ഫ്ത഻ ഫ്ത഼ ഫ്തഀ ഫ്തം ഫ്തഃ

ഫ്ന ഫ്നു ഫ്നൂ ഫ്നൃ ഫ്നൄ ഫ്നൢ ഫ്നൣ ൎഫ്ന ൎഫ്നു ൎഫ്നൂ ഫ്ന് ഫ്നു്  ഫ്ന഻ ഫ്ന഼ ഫ്നഀ ഫ്നം ഫ്നഃ

ഫ്പ ഫ്പു ഫ്പൂ ഫ്പൃ ഫ്പൄ ഫ്പൢ ഫ്പൣ ൎഫ്പ ൎഫ്പു ൎഫ്പൂ ഫ്പ് ഫ്പു്  ഫ്പ഻ ഫ്പ഼ ഫ്പഀ ഫ്പം ഫ്പഃ

ഫ്മ ഫ്മു ഫ്മൂ ഫ്മൃ ഫ്മൄ ഫ്മൢ ഫ്മൣ ൎഫ്മ ൎഫ്മു ൎഫ്മൂ ഫ്മ് ഫ്മു്  ഫ്മ഻ ഫ്മ഼ ഫ്മഀ ഫ്മം ഫ്മഃ

ഫ്ര ഫ്രു ഫ്രൂ ഫ്രൃ ഫ്രൄ ഫ്രൢ ഫ്രൣ ൎഫ്ര ൎഫ്രു ൎഫ്രൂ ഫ്ര് ഫ്രു്  ഫ്ര഻ ഫ്ര഼ ഫ്രഀ ഫ്രം ഫ്രഃ

ഫ്ക്ര ഫ്ക്രു ഫ്ക്രൂ ഫ്ക്രൃ ഫ്ക്രൄ ഫ്ക്രൢ ഫ്ക്രൣ ൎഫ്ക്ര ൎഫ്ക്രു ൎഫ്ക്രൂ ഫ്ക്ര് ഫ്ക്രു്  ഫ്ക്ര഻ ഫ്ക്ര഼ ഫ്ക്രഀ ഫ്ക്രം ഫ്ക്രഃ

ഫ്ട്ര ഫ്ട്രു ഫ്ട്രൂ ഫ്ട്രൃ ഫ്ട്രൄ ഫ്ട്രൢ ഫ്ട്രൣ ൎഫ്ട്ര ൎഫ്ട്രു ൎഫ്ട്രൂ ഫ്ട്ര് ഫ്ട്രു്  ഫ്ട്ര഻ ഫ്ട്ര഼ ഫ്ട്രഀ ഫ്ട്രം ഫ്ട്രഃ

ഫ്ത്ര ഫ്ത്രു ഫ്ത്രൂ ഫ്ത്രൃ ഫ്ത്രൄ ഫ്ത്രൢ ഫ്ത്രൣ ൎഫ്ത്ര ൎഫ്ത്രു ൎഫ്ത്രൂ ഫ്ത്ര് ഫ്ത്രു്  ഫ്ത്ര഻ ഫ്ത്ര഼ ഫ്ത്രഀ ഫ്ത്രം ഫ്ത്രഃ

ഫ്ന്ര ഫ്ന്രു ഫ്ന്രൂ ഫ്ന്രൃ ഫ്ന്രൄ ഫ്ന്രൢ ഫ്ന്രൣ ൎഫ്ന്ര ൎഫ്ന്രു ൎഫ്ന്രൂ ഫ്ന്ര് ഫ്ന്രു്  ഫ്ന്ര഻ ഫ്ന്ര഼ ഫ്ന്രഀ ഫ്ന്രം ഫ്ന്രഃ

ഫ്പ്ര ഫ്പ്രു ഫ്പ്രൂ ഫ്പ്രൃ ഫ്പ്രൄ ഫ്പ്രൢ ഫ്പ്രൣ ൎഫ്പ്ര ൎഫ്പ്രു ൎഫ്പ്രൂ ഫ്പ്ര് ഫ്പ്രു്  ഫ്പ്ര഻ ഫ്പ്ര഼ ഫ്പ്രഀ ഫ്പ്രം ഫ്പ്രഃ

ഫ്മ്ര ഫ്മ്രു ഫ്മ്രൂ ഫ്മ്രൃ ഫ്മ്രൄ ഫ്മ്രൢ ഫ്മ്രൣ ൎഫ്മ്ര ൎഫ്മ്രു ൎഫ്മ്രൂ ഫ്മ്ര് ഫ്മ്രു്  ഫ്മ്ര഻ ഫ്മ്ര഼ ഫ്മ്രഀ ഫ്മ്രം ഫ്മ്രഃ

ഫ്ര ഫ്രു ഫ്രൂ ഫ്രൃ ഫ്രൄ ഫ്രൢ ഫ്രൣ ൎഫ്ര ൎഫ്രു ൎഫ്രൂ ഫ്ര് ഫ്രു്  ഫ്ര഻ ഫ്ര഼ ഫ്രഀ ഫ്രം ഫ്രഃ

ഫ്ല ഫ്ലു ഫ്ലൂ ഫ്ലൃ ഫ്ലൄ ഫ്ലൢ ഫ്ലൣ ൎഫ്ല ൎഫ്ലു ൎഫ്ലൂ ഫ്ല് ഫ്ലു്  ഫ്ല഻ ഫ്ല഼ ഫ്ലഀ ഫ്ലം ഫ്ലഃ

ഫ്സ ഫ്സു ഫ്സൂ ഫ്സൃ ഫ്സൄ ഫ്സൢ ഫ്സൣ ൎഫ്സ ൎഫ്സു ൎഫ്സൂ ഫ്സ് ഫ്സു്  ഫ്സ഻ ഫ്സ഼ ഫ്സഀ ഫ്സം ഫ്സഃ

ഫ്സ്ര ഫ്സ്രു ഫ്സ്രൂ ഫ്സ്രൃ ഫ്സ്രൄ ഫ്സ്രൢ ഫ്സ്രൣ ൎഫ്സ്ര ൎഫ്സ്രു ൎഫ്സ്രൂ ഫ്സ്ര് ഫ്സ്രു്  ഫ്സ്ര഻ ഫ്സ്ര഼ ഫ്സ്രഀ ഫ്സ്രം ഫ്സ്രഃ

ഫ്റ്റ ഫ്റ്റു ഫ്റ്റൂ ഫ്റ്റൃ ഫ്റ്റൄ ഫ്റ്റൢ ഫ്റ്റൣ ൎഫ്റ്റ ൎഫ്റ്റു ൎഫ്റ്റൂ ഫ്റ്റ് ഫ്റ്റു്  ഫ്റ്റ഻ ഫ്റ്റ഼ ഫ്റ്റഀ ഫ്റ്റം ഫ്റ്റഃ

ബ ബു ബൂ ബൃ ബൄ ബൢ ബൣ ൎബ ൎബു ൎബൂ ബ് ബു്  ബ഻ ബ഼ ബഀ ബം ബഃ

ബ്ഗ ബ്ഗു ബ്ഗൂ ബ്ഗൃ ബ്ഗൄ ബ്ഗൢ ബ്ഗൣ ൎബ്ഗ ൎബ്ഗു ൎബ്ഗൂ ബ്ഗ് ബ്ഗു്  ബ്ഗ഻ ബ്ഗ഼ ബ്ഗഀ ബ്ഗം ബ്ഗഃ

ബ്ജ ബ്ജു ബ്ജൂ ബ്ജൃ ബ്ജൄ ബ്ജൢ ബ്ജൣ ൎബ്ജ ൎബ്ജു ൎബ്ജൂ ബ്ജ് ബ്ജു്  ബ്ജ഻ ബ്ജ഼ ബ്ജഀ ബ്ജം ബ്ജഃ

ബ്ദ ബ്ദു ബ്ദൂ ബ്ദൃ ബ്ദൄ ബ്ദൢ ബ്ദൣ ൎബ്ദ ൎബ്ദു ൎബ്ദൂ ബ്ദ് ബ്ദു്  ബ്ദ഻ ബ്ദ഼ ബ്ദഀ ബ്ദം ബ്ദഃ

ബ്ധ ബ്ധു ബ്ധൂ ബ്ധൃ ബ്ധൄ ബ്ധൢ ബ്ധൣ ൎബ്ധ ൎബ്ധു ൎബ്ധൂ ബ്ധ് ബ്ധു്  ബ്ധ഻ ബ്ധ഼ ബ്ധഀ ബ്ധം ബ്ധഃ

ബ്ന ബ്നു ബ്നൂ ബ്നൃ ബ്നൄ ബ്നൢ ബ്നൣ ൎബ്ന ൎബ്നു ൎബ്നൂ ബ്ന് ബ്നു്  ബ്ന഻ ബ്ന഼ ബ്നഀ ബ്നം ബ്നഃ

ബ്ബ ബ്ബു ബ്ബൂ ബ്ബൃ ബ്ബൄ ബ്ബൢ ബ്ബൣ ൎബ്ബ ൎബ്ബു ൎബ്ബൂ ബ്ബ് ബ്ബു്  ബ്ബ഻ ബ്ബ഼ ബ്ബഀ ബ്ബം ബ്ബഃ

ബ്ഭ ബ്ഭു ബ്ഭൂ ബ്ഭൃ ബ്ഭൄ ബ്ഭൢ ബ്ഭൣ ൎബ്ഭ ൎബ്ഭു ൎബ്ഭൂ ബ്ഭ് ബ്ഭു്  ബ്ഭ഻ ബ്ഭ഼ ബ്ഭഀ ബ്ഭം ബ്ഭഃ

ബ്ര ബ്രു ബ്രൂ ബ്രൃ ബ്രൄ ബ്രൢ ബ്രൣ ൎബ്ര ൎബ്രു ൎബ്രൂ ബ്ര് ബ്രു്  ബ്ര഻ ബ്ര഼ ബ്രഀ ബ്രം ബ്രഃ

ബ്ഗ്ര ബ്ഗ്രു ബ്ഗ്രൂ ബ്ഗ്രൃ ബ്ഗ്രൄ ബ്ഗ്രൢ ബ്ഗ്രൣ ൎബ്ഗ്ര ൎബ്ഗ്രു ൎബ്ഗ്രൂ ബ്ഗ്ര് ബ്ഗ്രു്  ബ്ഗ്ര഻ ബ്ഗ്ര഼ ബ്ഗ്രഀ ബ്ഗ്രം ബ്ഗ്രഃ

ബ്ജ്ര ബ്ജ്രു ബ്ജ്രൂ ബ്ജ്രൃ ബ്ജ്രൄ ബ്ജ്രൢ ബ്ജ്രൣ ൎബ്ജ്ര ൎബ്ജ്രു ൎബ്ജ്രൂ ബ്ജ്ര് ബ്ജ്രു്  ബ്ജ്ര഻ ബ്ജ്ര഼ ബ്ജ്രഀ ബ്ജ്രം ബ്ജ്രഃ

ബ്ദ്ര ബ്ദ്രു ബ്ദ്രൂ ബ്ദ്രൃ ബ്ദ്രൄ ബ്ദ്രൢ ബ്ദ്രൣ ൎബ്ദ്ര ൎബ്ദ്രു ൎബ്ദ്രൂ ബ്ദ്ര് ബ്ദ്രു്  ബ്ദ്ര഻ ബ്ദ്ര഼ ബ്ദ്രഀ ബ്ദ്രം ബ്ദ്രഃ

ബ്ധ്ര ബ്ധ്രു ബ്ധ്രൂ ബ്ധ്രൃ ബ്ധ്രൄ ബ്ധ്രൢ ബ്ധ്രൣ ൎബ്ധ്ര ൎബ്ധ്രു ൎബ്ധ്രൂ ബ്ധ്ര് ബ്ധ്രു്  ബ്ധ്ര഻ ബ്ധ്ര഼ ബ്ധ്രഀ ബ്ധ്രം ബ്ധ്രഃ

ബ്ന്ര ബ്ന്രു ബ്ന്രൂ ബ്ന്രൃ ബ്ന്രൄ ബ്ന്രൢ ബ്ന്രൣ ൎബ്ന്ര ൎബ്ന്രു ൎബ്ന്രൂ ബ്ന്ര് ബ്ന്രു്  ബ്ന്ര഻ ബ്ന്ര഼ ബ്ന്രഀ ബ്ന്രം ബ്ന്രഃ

ബ്ബ്ര ബ്ബ്രു ബ്ബ്രൂ ബ്ബ്രൃ ബ്ബ്രൄ ബ്ബ്രൢ ബ്ബ്രൣ ൎബ്ബ്ര ൎബ്ബ്രു ൎബ്ബ്രൂ ബ്ബ്ര് ബ്ബ്രു്  ബ്ബ്ര഻ ബ്ബ്ര഼ ബ്ബ്രഀ ബ്ബ്രം ബ്ബ്രഃ

ബ്ല ബ്ലു ബ്ലൂ ബ്ലൃ ബ്ലൄ ബ്ലൢ ബ്ലൣ ൎബ്ല ൎബ്ലു ൎബ്ലൂ ബ്ല് ബ്ലു്  ബ്ല഻ ബ്ല഼ ബ്ലഀ ബ്ലം ബ്ലഃ

ഭ ഭു ഭൂ ഭൃ ഭൄ ഭൢ ഭൣ ൎഭ ൎഭു ൎഭൂ ഭ് ഭു്  ഭ഻ ഭ഼ ഭഀ ഭം ഭഃ

ഭ്ര ഭ്രു ഭ്രൂ ഭ്രൃ ഭ്രൄ ഭ്രൢ ഭ്രൣ ൎഭ്ര ൎഭ്രു ൎഭ്രൂ ഭ്ര് ഭ്രു്  ഭ്ര഻ ഭ്ര഼ ഭ്രഀ ഭ്രം ഭ്രഃ

മ മു മൂ മൃ മൄ മൢ മൣ ൎമ ൎമു ൎമൂ മ് മു്  മ഻ മ഼ മഀ മം മഃ

മ്ന മ്നു മ്നൂ മ്നൃ മ്നൄ മ്നൢ മ്നൣ ൎമ്ന ൎമ്നു ൎമ്നൂ മ്ന് മ്നു്  മ്ന഻ മ്ന഼ മ്നഀ മ്നം മ്നഃ

മ്പ മ്പു മ്പൂ മ്പൃ മ്പൄ മ്പൢ മ്പൣ ൎമ്പ ൎമ്പു ൎമ്പൂ മ്പ് മ്പു്  മ്പ഻ മ്പ഼ മ്പഀ മ്പം മ്പഃ

മ്മ മ്മു മ്മൂ മ്മൃ മ്മൄ മ്മൢ മ്മൣ ൎമ്മ ൎമ്മു ൎമ്മൂ മ്മ് മ്മു്  മ്മ഻ മ്മ഼ മ്മഀ മ്മം മ്മഃ

മ്ന്ര മ്ന്രു മ്ന്രൂ മ്ന്രൃ മ്ന്രൄ മ്ന്രൢ മ്ന്രൣ ൎമ്ന്ര ൎമ്ന്രു ൎമ്ന്രൂ മ്ന്ര് മ്ന്രു്  മ്ന്ര഻ മ്ന്ര഼ മ്ന്രഀ മ്ന്രം മ്ന്രഃ

മ്പ്ര മ്പ്രു മ്പ്രൂ മ്പ്രൃ മ്പ്രൄ മ്പ്രൢ മ്പ്രൣ ൎമ്പ്ര ൎമ്പ്രു ൎമ്പ്രൂ മ്പ്ര് മ്പ്രു്  മ്പ്ര഻ മ്പ്ര഼ മ്പ്രഀ മ്പ്രം മ്പ്രഃ

മ്മ്ര മ്മ്രു മ്മ്രൂ മ്മ്രൃ മ്മ്രൄ മ്മ്രൢ മ്മ്രൣ ൎമ്മ്ര ൎമ്മ്രു ൎമ്മ്രൂ മ്മ്ര് മ്മ്രു്  മ്മ്ര഻ മ്മ്ര഼ മ്മ്രഀ മ്മ്രം മ്മ്രഃ

മ്ര മ്രു മ്രൂ മ്രൃ മ്രൄ മ്രൢ മ്രൣ ൎമ്ര ൎമ്രു ൎമ്രൂ മ്ര് മ്രു്  മ്ര഻ മ്ര഼ മ്രഀ മ്രം മ്രഃ

മ്ല മ്ലു മ്ലൂ മ്ലൃ മ്ലൄ മ്ലൢ മ്ലൣ ൎമ്ല ൎമ്ലു ൎമ്ലൂ മ്ല് മ്ലു്  മ്ല഻ മ്ല഼ മ്ലഀ മ്ലം മ്ലഃ

യ യു യൂ യൃ യൄ യൢ യൣ ൎയ ൎയു ൎയൂ യ് യു്  യ഻ യ഼ യഀ യം യഃ

യ്ക യ്കു യ്കൂ യ്കൃ യ്കൄ യ്കൢ യ്കൣ ൎയ്ക ൎയ്കു ൎയ്കൂ യ്ക് യ്കു്  യ്ക഻ യ്ക഼ യ്കഀ യ്കം യ്കഃ

യ്ക്ക യ്ക്കു യ്ക്കൂ യ്ക്കൃ യ്ക്കൄ യ്ക്കൢ യ്ക്കൣ ൎയ്ക്ക ൎയ്ക്കു ൎയ്ക്കൂ യ്ക്ക് യ്ക്കു്  യ്ക്ക഻ യ്ക്ക഼ യ്ക്കഀ യ്ക്കം യ്ക്കഃ

യ്ച യ്ചു യ്ചൂ യ്ചൃ യ്ചൄ യ്ചൢ യ്ചൣ ൎയ്ച ൎയ്ചു ൎയ്ചൂ യ്ച് യ്ചു്  യ്ച഻ യ്ച഼ യ്ചഀ യ്ചം യ്ചഃ

യ്ച്ച യ്ച്ചു യ്ച്ചൂ യ്ച്ചൃ യ്ച്ചൄ യ്ച്ചൢ യ്ച്ചൣ ൎയ്ച്ച ൎയ്ച്ചു ൎയ്ച്ചൂ യ്ച്ച് യ്ച്ചു്  യ്ച്ച഻ യ്ച്ച഼ യ്ച്ചഀ യ്ച്ചം യ്ച്ചഃ

യ്ത യ്തു യ്തൂ യ്തൃ യ്തൄ യ്തൢ യ്തൣ ൎയ്ത ൎയ്തു ൎയ്തൂ യ്ത് യ്തു്  യ്ത഻ യ്ത഼ യ്തഀ യ്തം യ്തഃ

യ്ത്ത യ്ത്തു യ്ത്തൂ യ്ത്തൃ യ്ത്തൄ യ്ത്തൢ യ്ത്തൣ ൎയ്ത്ത ൎയ്ത്തു ൎയ്ത്തൂ യ്ത്ത് യ്ത്തു്  യ്ത്ത഻ യ്ത്ത഼ യ്ത്തഀ യ്ത്തം യ്ത്തഃ

യ്ന യ്നു യ്നൂ യ്നൃ യ്നൄ യ്നൢ യ്നൣ ൎയ്ന ൎയ്നു ൎയ്നൂ യ്ന് യ്നു്  യ്ന഻ യ്ന഼ യ്നഀ യ്നം യ്നഃ

യ്ന്ത യ്ന്തു യ്ന്തൂ യ്ന്തൃ യ്ന്തൄ യ്ന്തൢ യ്ന്തൣ ൎയ്ന്ത ൎയ്ന്തു ൎയ്ന്തൂ യ്ന്ത് യ്ന്തു്  യ്ന്ത഻ യ്ന്ത഼ യ്ന്തഀ യ്ന്തം യ്ന്തഃ

യ്ന്ന യ്ന്നു യ്ന്നൂ യ്ന്നൃ യ്ന്നൄ യ്ന്നൢ യ്ന്നൣ ൎയ്ന്ന ൎയ്ന്നു ൎയ്ന്നൂ യ്ന്ന് യ്ന്നു്  യ്ന്ന഻ യ്ന്ന഼ യ്ന്നഀ യ്ന്നം യ്ന്നഃ

യ്പ യ്പു യ്പൂ യ്പൃ യ്പൄ യ്പൢ യ്പൣ ൎയ്പ ൎയ്പു ൎയ്പൂ യ്പ് യ്പു്  യ്പ഻ യ്പ഼ യ്പഀ യ്പം യ്പഃ

യ്പ്പ യ്പ്പു യ്പ്പൂ യ്പ്പൃ യ്പ്പൄ യ്പ്പൢ യ്പ്പൣ ൎയ്പ്പ ൎയ്പ്പു ൎയ്പ്പൂ യ്പ്പ് യ്പ്പു്  യ്പ്പ഻ യ്പ്പ഼ യ്പ്പഀ യ്പ്പം യ്പ്പഃ

യ്മ യ്മു യ്മൂ യ്മൃ യ്മൄ യ്മൢ യ്മൣ ൎയ്മ ൎയ്മു ൎയ്മൂ യ്മ് യ്മു്  യ്മ഻ യ്മ഼ യ്മഀ യ്മം യ്മഃ

യ്മ്മ യ്മ്മു യ്മ്മൂ യ്മ്മൃ യ്മ്മൄ യ്മ്മൢ യ്മ്മൣ ൎയ്മ്മ ൎയ്മ്മു ൎയ്മ്മൂ യ്മ്മ് യ്മ്മു്  യ്മ്മ഻ യ്മ്മ഼ യ്മ്മഀ യ്മ്മം യ്മ്മഃ

യ്യ യ്യു യ്യൂ യ്യൃ യ്യൄ യ്യൢ യ്യൣ ൎയ്യ ൎയ്യു ൎയ്യൂ യ്യ് യ്യു്  യ്യ഻ യ്യ഼ യ്യഀ യ്യം യ്യഃ

യ്ക്ര യ്ക്രു യ്ക്രൂ യ്ക്രൃ യ്ക്രൄ യ്ക്രൢ യ്ക്രൣ ൎയ്ക്ര ൎയ്ക്രു ൎയ്ക്രൂ യ്ക്ര് യ്ക്രു്  യ്ക്ര഻ യ്ക്ര഼ യ്ക്രഀ യ്ക്രം യ്ക്രഃ

യ്ക്ക്ര യ്ക്ക്രു യ്ക്ക്രൂ യ്ക്ക്രൃ യ്ക്ക്രൄ യ്ക്ക്രൢ യ്ക്ക്രൣ ൎയ്ക്ക്ര ൎയ്ക്ക്രു ൎയ്ക്ക്രൂ യ്ക്ക്ര് യ്ക്ക്രു്  യ്ക്ക്ര഻ യ്ക്ക്ര഼ യ്ക്ക്രഀ യ്ക്ക്രം യ്ക്ക്രഃ

യ്ത്ര യ്ത്രു യ്ത്രൂ യ്ത്രൃ യ്ത്രൄ യ്ത്രൢ യ്ത്രൣ ൎയ്ത്ര ൎയ്ത്രു ൎയ്ത്രൂ യ്ത്ര് യ്ത്രു്  യ്ത്ര഻ യ്ത്ര഼ യ്ത്രഀ യ്ത്രം യ്ത്രഃ

യ്ത്ത്ര യ്ത്ത്രു യ്ത്ത്രൂ യ്ത്ത്രൃ യ്ത്ത്രൄ യ്ത്ത്രൢ യ്ത്ത്രൣ ൎയ്ത്ത്ര ൎയ്ത്ത്രു ൎയ്ത്ത്രൂ യ്ത്ത്ര് യ്ത്ത്രു്  യ്ത്ത്ര഻ യ്ത്ത്ര഼ യ്ത്ത്രഀ യ്ത്ത്രം യ്ത്ത്രഃ

യ്ന്ര യ്ന്രു യ്ന്രൂ യ്ന്രൃ യ്ന്രൄ യ്ന്രൢ യ്ന്രൣ ൎയ്ന്ര ൎയ്ന്രു ൎയ്ന്രൂ യ്ന്ര് യ്ന്രു്  യ്ന്ര഻ യ്ന്ര഼ യ്ന്രഀ യ്ന്രം യ്ന്രഃ

യ്ന്ത്ര യ്ന്ത്രു യ്ന്ത്രൂ യ്ന്ത്രൃ യ്ന്ത്രൄ യ്ന്ത്രൢ യ്ന്ത്രൣ ൎയ്ന്ത്ര ൎയ്ന്ത്രു ൎയ്ന്ത്രൂ യ്ന്ത്ര് യ്ന്ത്രു്  യ്ന്ത്ര഻ യ്ന്ത്ര഼ യ്ന്ത്രഀ യ്ന്ത്രം യ്ന്ത്രഃ

യ്ന്ന്ര യ്ന്ന്രു യ്ന്ന്രൂ യ്ന്ന്രൃ യ്ന്ന്രൄ യ്ന്ന്രൢ യ്ന്ന്രൣ ൎയ്ന്ന്ര ൎയ്ന്ന്രു ൎയ്ന്ന്രൂ യ്ന്ന്ര് യ്ന്ന്രു്  യ്ന്ന്ര഻ യ്ന്ന്ര഼ യ്ന്ന്രഀ യ്ന്ന്രം യ്ന്ന്രഃ

യ്പ്ര യ്പ്രു യ്പ്രൂ യ്പ്രൃ യ്പ്രൄ യ്പ്രൢ യ്പ്രൣ ൎയ്പ്ര ൎയ്പ്രു ൎയ്പ്രൂ യ്പ്ര് യ്പ്രു്  യ്പ്ര഻ യ്പ്ര഼ യ്പ്രഀ യ്പ്രം യ്പ്രഃ

യ്പ്പ്ര യ്പ്പ്രു യ്പ്പ്രൂ യ്പ്പ്രൃ യ്പ്പ്രൄ യ്പ്പ്രൢ യ്പ്പ്രൣ ൎയ്പ്പ്ര ൎയ്പ്പ്രു ൎയ്പ്പ്രൂ യ്പ്പ്ര് യ്പ്പ്രു്  യ്പ്പ്ര഻ യ്പ്പ്ര഼ യ്പ്പ്രഀ യ്പ്പ്രം യ്പ്പ്രഃ

യ്മ്മ്ര യ്മ്മ്രു യ്മ്മ്രൂ യ്മ്മ്രൃ യ്മ്മ്രൄ യ്മ്മ്രൢ യ്മ്മ്രൣ ൎയ്മ്മ്ര ൎയ്മ്മ്രു ൎയ്മ്മ്രൂ യ്മ്മ്ര് യ്മ്മ്രു്  യ്മ്മ്ര഻ യ്മ്മ്ര഼ യ്മ്മ്രഀ യ്മ്മ്രം യ്മ്മ്രഃ

യ്ര യ്രു യ്രൂ യ്രൃ യ്രൄ യ്രൢ യ്രൣ ൎയ്ര ൎയ്രു ൎയ്രൂ യ്ര് യ്രു്  യ്ര഻ യ്ര഼ യ്രഀ യ്രം യ്രഃ

യ്യ്ര യ്യ്രു യ്യ്രൂ യ്യ്രൃ യ്യ്രൄ യ്യ്രൢ യ്യ്രൣ ൎയ്യ്ര ൎയ്യ്രു ൎയ്യ്രൂ യ്യ്ര് യ്യ്രു്  യ്യ്ര഻ യ്യ്ര഼ യ്യ്രഀ യ്യ്രം യ്യ്രഃ

ര രു രൂ രൃ രൄ രൢ രൣ ൎര ൎരു ൎരൂ ര് രു്  ര഻ ര഼ രഀ രം രഃ

ല ലു ലൂ ലൃ ലൄ ലൢ ലൣ ൎല ൎലു ൎലൂ ല് ലു്  ല഻ ല഼ ലഀ ലം ലഃ

ല്ക ല്കു ല്കൂ ല്കൃ ല്കൄ ല്കൢ ല്കൣ ൎല്ക ൎല്കു ൎല്കൂ ല്ക് ല്കു്  ല്ക഻ ല്ക഼ ല്കഀ ല്കം ല്കഃ

ല്ക്ക ല്ക്കു ല്ക്കൂ ല്ക്കൃ ല്ക്കൄ ല്ക്കൢ ല്ക്കൣ ൎല്ക്ക ൎല്ക്കു ൎല്ക്കൂ ല്ക്ക് ല്ക്കു്  ല്ക്ക഻ ല്ക്ക഼ ല്ക്കഀ ല്ക്കം ല്ക്കഃ

ല്ഗ ല്ഗു ല്ഗൂ ല്ഗൃ ല്ഗൄ ല്ഗൢ ല്ഗൣ ൎല്ഗ ൎല്ഗു ൎല്ഗൂ ല്ഗ് ല്ഗു്  ല്ഗ഻ ല്ഗ഼ ല്ഗഀ ല്ഗം ല്ഗഃ

ല്ഗ്ഗ ല്ഗ്ഗു ല്ഗ്ഗൂ ല്ഗ്ഗൃ ല്ഗ്ഗൄ ല്ഗ്ഗൢ ല്ഗ്ഗൣ ൎല്ഗ്ഗ ൎല്ഗ്ഗു ൎല്ഗ്ഗൂ ല്ഗ്ഗ് ല്ഗ്ഗു്  ല്ഗ്ഗ഻ ല്ഗ്ഗ഼ ല്ഗ്ഗഀ ല്ഗ്ഗം ല്ഗ്ഗഃ

ല്ച ല്ചു ല്ചൂ ല്ചൃ ല്ചൄ ല്ചൢ ല്ചൣ ൎല്ച ൎല്ചു ൎല്ചൂ ല്ച് ല്ചു്  ല്ച഻ ല്ച഼ ല്ചഀ ല്ചം ല്ചഃ

ല്ച്ച ല്ച്ചു ല്ച്ചൂ ല്ച്ചൃ ല്ച്ചൄ ല്ച്ചൢ ല്ച്ചൣ ൎല്ച്ച ൎല്ച്ചു ൎല്ച്ചൂ ല്ച്ച് ല്ച്ചു്  ല്ച്ച഻ ല്ച്ച഼ ല്ച്ചഀ ല്ച്ചം ല്ച്ചഃ

ല്ത ല്തു ല്തൂ ല്തൃ ല്തൄ ല്തൢ ല്തൣ ൎല്ത ൎല്തു ൎല്തൂ ല്ത് ല്തു്  ല്ത഻ ല്ത഼ ല്തഀ ല്തം ല്തഃ

ല്ത്ത ല്ത്തു ല്ത്തൂ ല്ത്തൃ ല്ത്തൄ ല്ത്തൢ ല്ത്തൣ ൎല്ത്ത ൎല്ത്തു ൎല്ത്തൂ ല്ത്ത് ല്ത്തു്  ല്ത്ത഻ ല്ത്ത഼ ല്ത്തഀ ല്ത്തം ല്ത്തഃ

ല്പ ല്പു ല്പൂ ല്പൃ ല്പൄ ല്പൢ ല്പൣ ൎല്പ ൎല്പു ൎല്പൂ ല്പ് ല്പു്  ല്പ഻ ല്പ഼ ല്പഀ ല്പം ല്പഃ

ല്മ ല്മു ല്മൂ ല്മൃ ല്മൄ ല്മൢ ല്മൣ ൎല്മ ൎല്മു ൎല്മൂ ല്മ് ല്മു്  ല്മ഻ ല്മ഼ ല്മഀ ല്മം ല്മഃ

ല്മ്മ ല്മ്മു ല്മ്മൂ ല്മ്മൃ ല്മ്മൄ ല്മ്മൢ ല്മ്മൣ ൎല്മ്മ ൎല്മ്മു ൎല്മ്മൂ ല്മ്മ് ല്മ്മു്  ല്മ്മ഻ ല്മ്മ഼ ല്മ്മഀ ല്മ്മം ല്മ്മഃ

ല്യ ല്യു ല്യൂ ല്യൃ ല്യൄ ല്യൢ ല്യൣ ൎല്യ ൎല്യു ൎല്യൂ ല്യ് ല്യു്  ല്യ഻ ല്യ഼ ല്യഀ ല്യം ല്യഃ

ല്ക്ര ല്ക്രു ല്ക്രൂ ല്ക്രൃ ല്ക്രൄ ല്ക്രൢ ല്ക്രൣ ൎല്ക്ര ൎല്ക്രു ൎല്ക്രൂ ല്ക്ര് ല്ക്രു്  ല്ക്ര഻ ല്ക്ര഼ ല്ക്രഀ ല്ക്രം ല്ക്രഃ

ല്ക്ക്ര ല്ക്ക്രു ല്ക്ക്രൂ ല്ക്ക്രൃ ല്ക്ക്രൄ ല്ക്ക്രൢ ല്ക്ക്രൣ ൎല്ക്ക്ര ൎല്ക്ക്രു ൎല്ക്ക്രൂ ല്ക്ക്ര് ല്ക്ക്രു്  ല്ക്ക്ര഻ ല്ക്ക്ര഼ ല്ക്ക്രഀ ല്ക്ക്രം ല്ക്ക്രഃ

ല്ഗ്ര ല്ഗ്രു ല്ഗ്രൂ ല്ഗ്രൃ ല്ഗ്രൄ ല്ഗ്രൢ ല്ഗ്രൣ ൎല്ഗ്ര ൎല്ഗ്രു ൎല്ഗ്രൂ ല്ഗ്ര് ല്ഗ്രു്  ല്ഗ്ര഻ ല്ഗ്ര഼ ല്ഗ്രഀ ല്ഗ്രം ല്ഗ്രഃ

ല്ഗ്ഗ്ര ല്ഗ്ഗ്രു ല്ഗ്ഗ്രൂ ല്ഗ്ഗ്രൃ ല്ഗ്ഗ്രൄ ല്ഗ്ഗ്രൢ ല്ഗ്ഗ്രൣ ൎല്ഗ്ഗ്ര ൎല്ഗ്ഗ്രു ൎല്ഗ്ഗ്രൂ ല്ഗ്ഗ്ര് ല്ഗ്ഗ്രു്  ല്ഗ്ഗ്ര഻ ല്ഗ്ഗ്ര഼ ല്ഗ്ഗ്രഀ ല്ഗ്ഗ്രം ല്ഗ്ഗ്രഃ

ല്ത്ര ല്ത്രു ല്ത്രൂ ല്ത്രൃ ല്ത്രൄ ല്ത്രൢ ല്ത്രൣ ൎല്ത്ര ൎല്ത്രു ൎല്ത്രൂ ല്ത്ര് ല്ത്രു്  ല്ത്ര഻ ല്ത്ര഼ ല്ത്രഀ ല്ത്രം ല്ത്രഃ

ല്ത്ര ല്ത്രു ല്ത്രൂ ല്ത്രൃ ല്ത്രൄ ല്ത്രൢ ല്ത്രൣ ൎല്ത്ര ൎല്ത്രു ൎല്ത്രൂ ല്ത്ര് ല്ത്രു്  ല്ത്ര഻ ല്ത്ര഼ ല്ത്രഀ ല്ത്രം ല്ത്രഃ

ല്ത്ത്ര ല്ത്ത്രു ല്ത്ത്രൂ ല്ത്ത്രൃ ല്ത്ത്രൄ ല്ത്ത്രൢ ല്ത്ത്രൣ ൎല്ത്ത്ര ൎല്ത്ത്രു ൎല്ത്ത്രൂ ല്ത്ത്ര് ല്ത്ത്രു്  ല്ത്ത്ര഻ ല്ത്ത്ര഼ ല്ത്ത്രഀ ല്ത്ത്രം ല്ത്ത്രഃ

ല്പ്ര ല്പ്രു ല്പ്രൂ ല്പ്രൃ ല്പ്രൄ ല്പ്രൢ ല്പ്രൣ ൎല്പ്ര ൎല്പ്രു ൎല്പ്രൂ ല്പ്ര് ല്പ്രു്  ല്പ്ര഻ ല്പ്ര഼ ല്പ്രഀ ല്പ്രം ല്പ്രഃ

ല്പ്പ്ര ല്പ്പ്രു ല്പ്പ്രൂ ല്പ്പ്രൃ ല്പ്പ്രൄ ല്പ്പ്രൢ ല്പ്പ്രൣ ൎല്പ്പ്ര ൎല്പ്പ്രു ൎല്പ്പ്രൂ ല്പ്പ്ര് ല്പ്പ്രു്  ല്പ്പ്ര഻ ല്പ്പ്ര഼ ല്പ്പ്രഀ ല്പ്പ്രം ല്പ്പ്രഃ

ല്മ്ര ല്മ്രു ല്മ്രൂ ല്മ്രൃ ല്മ്രൄ ല്മ്രൢ ല്മ്രൣ ൎല്മ്ര ൎല്മ്രു ൎല്മ്രൂ ല്മ്ര് ല്മ്രു്  ല്മ്ര഻ ല്മ്ര഼ ല്മ്രഀ ല്മ്രം ല്മ്രഃ

ല്മ്മ്ര ല്മ്മ്രു ല്മ്മ്രൂ ല്മ്മ്രൃ ല്മ്മ്രൄ ല്മ്മ്രൢ ല്മ്മ്രൣ ൎല്മ്മ്ര ൎല്മ്മ്രു ൎല്മ്മ്രൂ ല്മ്മ്ര് ല്മ്മ്രു്  ല്മ്മ്ര഻ ല്മ്മ്ര഼ ല്മ്മ്രഀ ല്മ്മ്രം ല്മ്മ്രഃ

ല്ല ല്ലു ല്ലൂ ല്ലൃ ല്ലൄ ല്ലൢ ല്ലൣ ൎല്ല ൎല്ലു ൎല്ലൂ ല്ല് ല്ലു്  ല്ല഻ ല്ല഼ ല്ലഀ ല്ലം ല്ലഃ

ല്ല്യ ല്ല്യു ല്ല്യൂ ല്ല്യൃ ല്ല്യൄ ല്ല്യൢ ല്ല്യൣ ൎല്ല്യ ൎല്ല്യു ൎല്ല്യൂ ല്ല്യ് ല്ല്യു്  ല്ല്യ഻ ല്ല്യ഼ ല്ല്യഀ ല്ല്യം ല്ല്യഃ

വ വു വൂ വൃ വൄ വൢ വൣ ൎവ ൎവു ൎവൂ വ് വു്  വ഻ വ഼ വഀ വം വഃ

വ്ര വ്രു വ്രൂ വ്രൃ വ്രൄ വ്രൢ വ്രൣ ൎവ്ര ൎവ്രു ൎവ്രൂ വ്ര് വ്രു്  വ്ര഻ വ്ര഼ വ്രഀ വ്രം വ്രഃ

വ്വ വ്വു വ്വൂ വ്വൃ വ്വൄ വ്വൢ വ്വൣ ൎവ്വ ൎവ്വു ൎവ്വൂ വ്വ് വ്വു്  വ്വ഻ വ്വ഼ വ്വഀ വ്വം വ്വഃ

വ്വ്ര വ്വ്രു വ്വ്രൂ വ്വ്രൃ വ്വ്രൄ വ്വ്രൢ വ്വ്രൣ ൎവ്വ്ര ൎവ്വ്രു ൎവ്വ്രൂ വ്വ്ര് വ്വ്രു്  വ്വ്ര഻ വ്വ്ര഼ വ്വ്രഀ വ്വ്രം വ്വ്രഃ

ശ ശു ശൂ ശൃ ശൄ ശൢ ശൣ ൎശ ൎശു ൎശൂ ശ് ശു്  ശ഻ ശ഼ ശഀ ശം ശഃ

ശ്ച ശ്ചു ശ്ചൂ ശ്ചൃ ശ്ചൄ ശ്ചൢ ശ്ചൣ ൎശ്ച ൎശ്ചു ൎശ്ചൂ ശ്ച് ശ്ചു്  ശ്ച഻ ശ്ച഼ ശ്ചഀ ശ്ചം ശ്ചഃ

ശ്ഛ ശ്ഛു ശ്ഛൂ ശ്ഛൃ ശ്ഛൄ ശ്ഛൢ ശ്ഛൣ ൎശ്ഛ ൎശ്ഛു ൎശ്ഛൂ ശ്ഛ് ശ്ഛു്  ശ്ഛ഻ ശ്ഛ഼ ശ്ഛഀ ശ്ഛം ശ്ഛഃ

ശ്ന ശ്നു ശ്നൂ ശ്നൃ ശ്നൄ ശ്നൢ ശ്നൣ ൎശ്ന ൎശ്നു ൎശ്നൂ ശ്ന് ശ്നു്  ശ്ന഻ ശ്ന഼ ശ്നഀ ശ്നം ശ്നഃ

ശ്മ ശ്മു ശ്മൂ ശ്മൃ ശ്മൄ ശ്മൢ ശ്മൣ ൎശ്മ ൎശ്മു ൎശ്മൂ ശ്മ് ശ്മു്  ശ്മ഻ ശ്മ഼ ശ്മഀ ശ്മം ശ്മഃ

ശ്മ്ര ശ്മ്രു ശ്മ്രൂ ശ്മ്രൃ ശ്മ്രൄ ശ്മ്രൢ ശ്മ്രൣ ൎശ്മ്ര ൎശ്മ്രു ൎശ്മ്രൂ ശ്മ്ര് ശ്മ്രു്  ശ്മ്ര഻ ശ്മ്ര഼ ശ്മ്രഀ ശ്മ്രം ശ്മ്രഃ

ശ്യ ശ്യു ശ്യൂ ശ്യൃ ശ്യൄ ശ്യൢ ശ്യൣ ൎശ്യ ൎശ്യു ൎശ്യൂ ശ്യ് ശ്യു്  ശ്യ഻ ശ്യ഼ ശ്യഀ ശ്യം ശ്യഃ

ശ്ന്ര ശ്ന്രു ശ്ന്രൂ ശ്ന്രൃ ശ്ന്രൄ ശ്ന്രൢ ശ്ന്രൣ ൎശ്ന്ര ൎശ്ന്രു ൎശ്ന്രൂ ശ്ന്ര് ശ്ന്രു്  ശ്ന്ര഻ ശ്ന്ര഼ ശ്ന്രഀ ശ്ന്രം ശ്ന്രഃ

ശ്ര ശ്രു ശ്രൂ ശ്രൃ ശ്രൄ ശ്രൢ ശ്രൣ ൎശ്ര ൎശ്രു ൎശ്രൂ ശ്ര് ശ്രു്  ശ്ര഻ ശ്ര഼ ശ്രഀ ശ്രം ശ്രഃ

ശ്ല ശ്ലു ശ്ലൂ ശ്ലൃ ശ്ലൄ ശ്ലൢ ശ്ലൣ ൎശ്ല ൎശ്ലു ൎശ്ലൂ ശ്ല് ശ്ലു്  ശ്ല഻ ശ്ല഼ ശ്ലഀ ശ്ലം ശ്ലഃ

ശ്ശ ശ്ശു ശ്ശൂ ശ്ശൃ ശ്ശൄ ശ്ശൢ ശ്ശൣ ൎശ്ശ ൎശ്ശു ൎശ്ശൂ ശ്ശ് ശ്ശു്  ശ്ശ഻ ശ്ശ഼ ശ്ശഀ ശ്ശം ശ്ശഃ

ശ്ശ്യ ശ്ശ്യു ശ്ശ്യൂ ശ്ശ്യൃ ശ്ശ്യൄ ശ്ശ്യൢ ശ്ശ്യൣ ൎശ്ശ്യ ൎശ്ശ്യു ൎശ്ശ്യൂ ശ്ശ്യ് ശ്ശ്യു്  ശ്ശ്യ഻ ശ്ശ്യ഼ ശ്ശ്യഀ ശ്ശ്യം ശ്ശ്യഃ

ശ്ശ്ര ശ്ശ്രു ശ്ശ്രൂ ശ്ശ്രൃ ശ്ശ്രൄ ശ്ശ്രൢ ശ്ശ്രൣ ൎശ്ശ്ര ൎശ്ശ്രു ൎശ്ശ്രൂ ശ്ശ്ര് ശ്ശ്രു്  ശ്ശ്ര഻ ശ്ശ്ര഼ ശ്ശ്രഀ ശ്ശ്രം ശ്ശ്രഃ

ഷ ഷു ഷൂ ഷൃ ഷൄ ഷൢ ഷൣ ൎഷ ൎഷു ൎഷൂ ഷ് ഷു്  ഷ഻ ഷ഼ ഷഀ ഷം ഷഃ

ഷ്ക ഷ്കു ഷ്കൂ ഷ്കൃ ഷ്കൄ ഷ്കൢ ഷ്കൣ ൎഷ്ക ൎഷ്കു ൎഷ്കൂ ഷ്ക് ഷ്കു്  ഷ്ക഻ ഷ്ക഼ ഷ്കഀ ഷ്കം ഷ്കഃ

ഷ്ക്ക ഷ്ക്കു ഷ്ക്കൂ ഷ്ക്കൃ ഷ്ക്കൄ ഷ്ക്കൢ ഷ്ക്കൣ ൎഷ്ക്ക ൎഷ്ക്കു ൎഷ്ക്കൂ ഷ്ക്ക് ഷ്ക്കു്  ഷ്ക്ക഻ ഷ്ക്ക഼ ഷ്ക്കഀ ഷ്ക്കം ഷ്ക്കഃ

ഷ്ക്ര ഷ്ക്രു ഷ്ക്രൂ ഷ്ക്രൃ ഷ്ക്രൄ ഷ്ക്രൢ ഷ്ക്രൣ ൎഷ്ക്ര ൎഷ്ക്രു ൎഷ്ക്രൂ ഷ്ക്ര് ഷ്ക്രു്  ഷ്ക്ര഻ ഷ്ക്ര഼ ഷ്ക്രഀ ഷ്ക്രം ഷ്ക്രഃ

ഷ്ക്ക്ര ഷ്ക്ക്രു ഷ്ക്ക്രൂ ഷ്ക്ക്രൃ ഷ്ക്ക്രൄ ഷ്ക്ക്രൢ ഷ്ക്ക്രൣ ൎഷ്ക്ക്ര ൎഷ്ക്ക്രു ൎഷ്ക്ക്രൂ ഷ്ക്ക്ര് ഷ്ക്ക്രു്  ഷ്ക്ക്ര഻ ഷ്ക്ക്ര഼ ഷ്ക്ക്രഀ ഷ്ക്ക്രം ഷ്ക്ക്രഃ

ഷ്ട ഷ്ടു ഷ്ടൂ ഷ്ടൃ ഷ്ടൄ ഷ്ടൢ ഷ്ടൣ ൎഷ്ട ൎഷ്ടു ൎഷ്ടൂ ഷ്ട് ഷ്ടു്  ഷ്ട഻ ഷ്ട഼ ഷ്ടഀ ഷ്ടം ഷ്ടഃ

ഷ്ട്ട ഷ്ട്ടു ഷ്ട്ടൂ ഷ്ട്ടൃ ഷ്ട്ടൄ ഷ്ട്ടൢ ഷ്ട്ടൣ ൎഷ്ട്ട ൎഷ്ട്ടു ൎഷ്ട്ടൂ ഷ്ട്ട് ഷ്ട്ടു്  ഷ്ട്ട഻ ഷ്ട്ട഼ ഷ്ട്ടഀ ഷ്ട്ടം ഷ്ട്ടഃ

ഷ്ട്ര ഷ്ട്രു ഷ്ട്രൂ ഷ്ട്രൃ ഷ്ട്രൄ ഷ്ട്രൢ ഷ്ട്രൣ ൎഷ്ട്ര ൎഷ്ട്രു ൎഷ്ട്രൂ ഷ്ട്ര് ഷ്ട്രു്  ഷ്ട്ര഻ ഷ്ട്ര഼ ഷ്ട്രഀ ഷ്ട്രം ഷ്ട്രഃ

ഷ്ട്ട്ര ഷ്ട്ട്രു ഷ്ട്ട്രൂ ഷ്ട്ട്രൃ ഷ്ട്ട്രൄ ഷ്ട്ട്രൢ ഷ്ട്ട്രൣ ൎഷ്ട്ട്ര ൎഷ്ട്ട്രു ൎഷ്ട്ട്രൂ ഷ്ട്ട്ര് ഷ്ട്ട്രു്  ഷ്ട്ട്ര഻ ഷ്ട്ട്ര഼ ഷ്ട്ട്രഀ ഷ്ട്ട്രം ഷ്ട്ട്രഃ

ഷ്ഠ ഷ്ഠു ഷ്ഠൂ ഷ്ഠൃ ഷ്ഠൄ ഷ്ഠൢ ഷ്ഠൣ ൎഷ്ഠ ൎഷ്ഠു ൎഷ്ഠൂ ഷ്ഠ് ഷ്ഠു്  ഷ്ഠ഻ ഷ്ഠ഼ ഷ്ഠഀ ഷ്ഠം ഷ്ഠഃ

ഷ്ട്ട ഷ്ട്ടു ഷ്ട്ടൂ ഷ്ട്ടൃ ഷ്ട്ടൄ ഷ്ട്ടൢ ഷ്ട്ടൣ ൎഷ്ട്ട ൎഷ്ട്ടു ൎഷ്ട്ടൂ ഷ്ട്ട് ഷ്ട്ടു്  ഷ്ട്ട഻ ഷ്ട്ട഼ ഷ്ട്ടഀ ഷ്ട്ടം ഷ്ട്ടഃ

ഷ്ണ ഷ്ണു ഷ്ണൂ ഷ്ണൃ ഷ്ണൄ ഷ്ണൢ ഷ്ണൣ ൎഷ്ണ ൎഷ്ണു ൎഷ്ണൂ ഷ്ണ് ഷ്ണു്  ഷ്ണ഻ ഷ്ണ഼ ഷ്ണഀ ഷ്ണം ഷ്ണഃ

ഷ്ണ്ണ ഷ്ണ്ണു ഷ്ണ്ണൂ ഷ്ണ്ണൃ ഷ്ണ്ണൄ ഷ്ണ്ണൢ ഷ്ണ്ണൣ ൎഷ്ണ്ണ ൎഷ്ണ്ണു ൎഷ്ണ്ണൂ ഷ്ണ്ണ് ഷ്ണ്ണു്  ഷ്ണ്ണ഻ ഷ്ണ്ണ഼ ഷ്ണ്ണഀ ഷ്ണ്ണം ഷ്ണ്ണഃ

ഷ്പ ഷ്പു ഷ്പൂ ഷ്പൃ ഷ്പൄ ഷ്പൢ ഷ്പൣ ൎഷ്പ ൎഷ്പു ൎഷ്പൂ ഷ്പ് ഷ്പു്  ഷ്പ഻ ഷ്പ഼ ഷ്പഀ ഷ്പം ഷ്പഃ

ഷ്പ്പ ഷ്പ്പു ഷ്പ്പൂ ഷ്പ്പൃ ഷ്പ്പൄ ഷ്പ്പൢ ഷ്പ്പൣ ൎഷ്പ്പ ൎഷ്പ്പു ൎഷ്പ്പൂ ഷ്പ്പ് ഷ്പ്പു്  ഷ്പ്പ഻ ഷ്പ്പ഼ ഷ്പ്പഀ ഷ്പ്പം ഷ്പ്പഃ

ഷ്പ്പ്ര ഷ്പ്പ്രു ഷ്പ്പ്രൂ ഷ്പ്പ്രൃ ഷ്പ്പ്രൄ ഷ്പ്പ്രൢ ഷ്പ്പ്രൣ ൎഷ്പ്പ്ര ൎഷ്പ്പ്രു ൎഷ്പ്പ്രൂ ഷ്പ്പ്ര് ഷ്പ്പ്രു്  ഷ്പ്പ്ര഻ ഷ്പ്പ്ര഼ ഷ്പ്പ്രഀ ഷ്പ്പ്രം ഷ്പ്പ്രഃ

ഷ്പ്ര ഷ്പ്രു ഷ്പ്രൂ ഷ്പ്രൃ ഷ്പ്രൄ ഷ്പ്രൢ ഷ്പ്രൣ ൎഷ്പ്ര ൎഷ്പ്രു ൎഷ്പ്രൂ ഷ്പ്ര് ഷ്പ്രു്  ഷ്പ്ര഻ ഷ്പ്ര഼ ഷ്പ്രഀ ഷ്പ്രം ഷ്പ്രഃ

ഷ്ഫ ഷ്ഫു ഷ്ഫൂ ഷ്ഫൃ ഷ്ഫൄ ഷ്ഫൢ ഷ്ഫൣ ൎഷ്ഫ ൎഷ്ഫു ൎഷ്ഫൂ ഷ്ഫ് ഷ്ഫു്  ഷ്ഫ഻ ഷ്ഫ഼ ഷ്ഫഀ ഷ്ഫം ഷ്ഫഃ

ഷ്ഫ്ര ഷ്ഫ്രു ഷ്ഫ്രൂ ഷ്ഫ്രൃ ഷ്ഫ്രൄ ഷ്ഫ്രൢ ഷ്ഫ്രൣ ൎഷ്ഫ്ര ൎഷ്ഫ്രു ൎഷ്ഫ്രൂ ഷ്ഫ്ര് ഷ്ഫ്രു്  ഷ്ഫ്ര഻ ഷ്ഫ്ര഼ ഷ്ഫ്രഀ ഷ്ഫ്രം ഷ്ഫ്രഃ

ഷ്മ ഷ്മു ഷ്മൂ ഷ്മൃ ഷ്മൄ ഷ്മൢ ഷ്മൣ ൎഷ്മ ൎഷ്മു ൎഷ്മൂ ഷ്മ് ഷ്മു്  ഷ്മ഻ ഷ്മ഼ ഷ്മഀ ഷ്മം ഷ്മഃ

ഷ്മ്മ ഷ്മ്മു ഷ്മ്മൂ ഷ്മ്മൃ ഷ്മ്മൄ ഷ്മ്മൢ ഷ്മ്മൣ ൎഷ്മ്മ ൎഷ്മ്മു ൎഷ്മ്മൂ ഷ്മ്മ് ഷ്മ്മു്  ഷ്മ്മ഻ ഷ്മ്മ഼ ഷ്മ്മഀ ഷ്മ്മം ഷ്മ്മഃ

ഷ്മ്ര ഷ്മ്രു ഷ്മ്രൂ ഷ്മ്രൃ ഷ്മ്രൄ ഷ്മ്രൢ ഷ്മ്രൣ ൎഷ്മ്ര ൎഷ്മ്രു ൎഷ്മ്രൂ ഷ്മ്ര് ഷ്മ്രു്  ഷ്മ്ര഻ ഷ്മ്ര഼ ഷ്മ്രഀ ഷ്മ്രം ഷ്മ്രഃ

ഷ്ര ഷ്രു ഷ്രൂ ഷ്രൃ ഷ്രൄ ഷ്രൢ ഷ്രൣ ൎഷ്ര ൎഷ്രു ൎഷ്രൂ ഷ്ര് ഷ്രു്  ഷ്ര഻ ഷ്ര഼ ഷ്രഀ ഷ്രം ഷ്രഃ

സ സു സൂ സൃ സൄ സൢ സൣ ൎസ ൎസു ൎസൂ സ് സു്  സ഻ സ഼ സഀ സം സഃ

സ്ക സ്കു സ്കൂ സ്കൃ സ്കൄ സ്കൢ സ്കൣ ൎസ്ക ൎസ്കു ൎസ്കൂ സ്ക് സ്കു്  സ്ക഻ സ്ക഼ സ്കഀ സ്കം സ്കഃ

സ്ക്ക സ്ക്കു സ്ക്കൂ സ്ക്കൃ സ്ക്കൄ സ്ക്കൢ സ്ക്കൣ ൎസ്ക്ക ൎസ്ക്കു ൎസ്ക്കൂ സ്ക്ക് സ്ക്കു്  സ്ക്ക഻ സ്ക്ക഼ സ്ക്കഀ സ്ക്കം സ്ക്കഃ

സ്ക്ര സ്ക്രു സ്ക്രൂ സ്ക്രൃ സ്ക്രൄ സ്ക്രൢ സ്ക്രൣ ൎസ്ക്ര ൎസ്ക്രു ൎസ്ക്രൂ സ്ക്ര് സ്ക്രു്  സ്ക്ര഻ സ്ക്ര഼ സ്ക്രഀ സ്ക്രം സ്ക്രഃ

സ്ക്ക്ര സ്ക്ക്രു സ്ക്ക്രൂ സ്ക്ക്രൃ സ്ക്ക്രൄ സ്ക്ക്രൢ സ്ക്ക്രൣ ൎസ്ക്ക്ര ൎസ്ക്ക്രു ൎസ്ക്ക്രൂ സ്ക്ക്ര് സ്ക്ക്രു്  സ്ക്ക്ര഻ സ്ക്ക്ര഼ സ്ക്ക്രഀ സ്ക്ക്രം സ്ക്ക്രഃ

സ്ഖ സ്ഖു സ്ഖൂ സ്ഖൃ സ്ഖൄ സ്ഖൢ സ്ഖൣ ൎസ്ഖ ൎസ്ഖു ൎസ്ഖൂ സ്ഖ് സ്ഖു്  സ്ഖ഻ സ്ഖ഼ സ്ഖഀ സ്ഖം സ്ഖഃ

സ്ഖ്ര സ്ഖ്രു സ്ഖ്രൂ സ്ഖ്രൃ സ്ഖ്രൄ സ്ഖ്രൢ സ്ഖ്രൣ ൎസ്ഖ്ര ൎസ്ഖ്രു ൎസ്ഖ്രൂ സ്ഖ്ര് സ്ഖ്രു്  സ്ഖ്ര഻ സ്ഖ്ര഼ സ്ഖ്രഀ സ്ഖ്രം സ്ഖ്രഃ

സ്ട സ്ടു സ്ടൂ സ്ടൃ സ്ടൄ സ്ടൢ സ്ടൣ ൎസ്ട ൎസ്ടു ൎസ്ടൂ സ്ട് സ്ടു്  സ്ട഻ സ്ട഼ സ്ടഀ സ്ടം സ്ടഃ

സ്ട്ട സ്ട്ടു സ്ട്ടൂ സ്ട്ടൃ സ്ട്ടൄ സ്ട്ടൢ സ്ട്ടൣ ൎസ്ട്ട ൎസ്ട്ടു ൎസ്ട്ടൂ സ്ട്ട് സ്ട്ടു്  സ്ട്ട഻ സ്ട്ട഼ സ്ട്ടഀ സ്ട്ടം സ്ട്ടഃ

സ്ട്ര സ്ട്രു സ്ട്രൂ സ്ട്രൃ സ്ട്രൄ സ്ട്രൢ സ്ട്രൣ ൎസ്ട്ര ൎസ്ട്രു ൎസ്ട്രൂ സ്ട്ര് സ്ട്രു്  സ്ട്ര഻ സ്ട്ര഼ സ്ട്രഀ സ്ട്രം സ്ട്രഃ

സ്ട്ട്ര സ്ട്ട്രു സ്ട്ട്രൂ സ്ട്ട്രൃ സ്ട്ട്രൄ സ്ട്ട്രൢ സ്ട്ട്രൣ ൎസ്ട്ട്ര ൎസ്ട്ട്രു ൎസ്ട്ട്രൂ സ്ട്ട്ര് സ്ട്ട്രു്  സ്ട്ട്ര഻ സ്ട്ട്ര഼ സ്ട്ട്രഀ സ്ട്ട്രം സ്ട്ട്രഃ

സ്ത സ്തു സ്തൂ സ്തൃ സ്തൄ സ്തൢ സ്തൣ ൎസ്ത ൎസ്തു ൎസ്തൂ സ്ത് സ്തു്  സ്ത഻ സ്ത഼ സ്തഀ സ്തം സ്തഃ

സ്ത്ത സ്ത്തു സ്ത്തൂ സ്ത്തൃ സ്ത്തൄ സ്ത്തൢ സ്ത്തൣ ൎസ്ത്ത ൎസ്ത്തു ൎസ്ത്തൂ സ്ത്ത് സ്ത്തു്  സ്ത്ത഻ സ്ത്ത഼ സ്ത്തഀ സ്ത്തം സ്ത്തഃ

സ്ത്ത്ര സ്ത്ത്രു സ്ത്ത്രൂ സ്ത്ത്രൃ സ്ത്ത്രൄ സ്ത്ത്രൢ സ്ത്ത്രൣ ൎസ്ത്ത്ര ൎസ്ത്ത്രു ൎസ്ത്ത്രൂ സ്ത്ത്ര് സ്ത്ത്രു്  സ്ത്ത്ര഻ സ്ത്ത്ര഼ സ്ത്ത്രഀ സ്ത്ത്രം സ്ത്ത്രഃ

സ്ത്ര സ്ത്രു സ്ത്രൂ സ്ത്രൃ സ്ത്രൄ സ്ത്രൢ സ്ത്രൣ ൎസ്ത്ര ൎസ്ത്രു ൎസ്ത്രൂ സ്ത്ര് സ്ത്രു്  സ്ത്ര഻ സ്ത്ര഼ സ്ത്രഀ സ്ത്രം സ്ത്രഃ

സ്ഥ സ്ഥു സ്ഥൂ സ്ഥൃ സ്ഥൄ സ്ഥൢ സ്ഥൣ ൎസ്ഥ ൎസ്ഥു ൎസ്ഥൂ സ്ഥ് സ്ഥു്  സ്ഥ഻ സ്ഥ഼ സ്ഥഀ സ്ഥം സ്ഥഃ

സ്ന സ്നു സ്നൂ സ്നൃ സ്നൄ സ്നൢ സ്നൣ ൎസ്ന ൎസ്നു ൎസ്നൂ സ്ന് സ്നു്  സ്ന഻ സ്ന഼ സ്നഀ സ്നം സ്നഃ

സ്ന്ന സ്ന്നു സ്ന്നൂ സ്ന്നൃ സ്ന്നൄ സ്ന്നൢ സ്ന്നൣ ൎസ്ന്ന ൎസ്ന്നു ൎസ്ന്നൂ സ്ന്ന് സ്ന്നു്  സ്ന്ന഻ സ്ന്ന഼ സ്ന്നഀ സ്ന്നം സ്ന്നഃ

സ്ന്ര സ്ന്രു സ്ന്രൂ സ്ന്രൃ സ്ന്രൄ സ്ന്രൢ സ്ന്രൣ ൎസ്ന്ര ൎസ്ന്രു ൎസ്ന്രൂ സ്ന്ര് സ്ന്രു്  സ്ന്ര഻ സ്ന്ര഼ സ്ന്രഀ സ്ന്രം സ്ന്രഃ

സ്പ സ്പു സ്പൂ സ്പൃ സ്പൄ സ്പൢ സ്പൣ ൎസ്പ ൎസ്പു ൎസ്പൂ സ്പ് സ്പു്  സ്പ഻ സ്പ഼ സ്പഀ സ്പം സ്പഃ

സ്പ്പ സ്പ്പു സ്പ്പൂ സ്പ്പൃ സ്പ്പൄ സ്പ്പൢ സ്പ്പൣ ൎസ്പ്പ ൎസ്പ്പു ൎസ്പ്പൂ സ്പ്പ് സ്പ്പു്  സ്പ്പ഻ സ്പ്പ഼ സ്പ്പഀ സ്പ്പം സ്പ്പഃ

സ്പ്പ്ര സ്പ്പ്രു സ്പ്പ്രൂ സ്പ്പ്രൃ സ്പ്പ്രൄ സ്പ്പ്രൢ സ്പ്പ്രൣ ൎസ്പ്പ്ര ൎസ്പ്പ്രു ൎസ്പ്പ്രൂ സ്പ്പ്ര് സ്പ്പ്രു്  സ്പ്പ്ര഻ സ്പ്പ്ര഼ സ്പ്പ്രഀ സ്പ്പ്രം സ്പ്പ്രഃ

സ്പ്ര സ്പ്രു സ്പ്രൂ സ്പ്രൃ സ്പ്രൄ സ്പ്രൢ സ്പ്രൣ ൎസ്പ്ര ൎസ്പ്രു ൎസ്പ്രൂ സ്പ്ര് സ്പ്രു്  സ്പ്ര഻ സ്പ്ര഼ സ്പ്രഀ സ്പ്രം സ്പ്രഃ

സ്ഫ സ്ഫു സ്ഫൂ സ്ഫൃ സ്ഫൄ സ്ഫൢ സ്ഫൣ ൎസ്ഫ ൎസ്ഫു ൎസ്ഫൂ സ്ഫ് സ്ഫു്  സ്ഫ഻ സ്ഫ഼ സ്ഫഀ സ്ഫം സ്ഫഃ

സ്ഫ്ര സ്ഫ്രു സ്ഫ്രൂ സ്ഫ്രൃ സ്ഫ്രൄ സ്ഫ്രൢ സ്ഫ്രൣ ൎസ്ഫ്ര ൎസ്ഫ്രു ൎസ്ഫ്രൂ സ്ഫ്ര് സ്ഫ്രു്  സ്ഫ്ര഻ സ്ഫ്ര഼ സ്ഫ്രഀ സ്ഫ്രം സ്ഫ്രഃ

സ്ബ സ്ബു സ്ബൂ സ്ബൃ സ്ബൄ സ്ബൢ സ്ബൣ ൎസ്ബ ൎസ്ബു ൎസ്ബൂ സ്ബ് സ്ബു്  സ്ബ഻ സ്ബ഼ സ്ബഀ സ്ബം സ്ബഃ

സ്മ സ്മു സ്മൂ സ്മൃ സ്മൄ സ്മൢ സ്മൣ ൎസ്മ ൎസ്മു ൎസ്മൂ സ്മ് സ്മു്  സ്മ഻ സ്മ഼ സ്മഀ സ്മം സ്മഃ

സ്മ്മ സ്മ്മു സ്മ്മൂ സ്മ്മൃ സ്മ്മൄ സ്മ്മൢ സ്മ്മൣ ൎസ്മ്മ ൎസ്മ്മു ൎസ്മ്മൂ സ്മ്മ് സ്മ്മു്  സ്മ്മ഻ സ്മ്മ഼ സ്മ്മഀ സ്മ്മം സ്മ്മഃ

സ്മ്ര സ്മ്രു സ്മ്രൂ സ്മ്രൃ സ്മ്രൄ സ്മ്രൢ സ്മ്രൣ ൎസ്മ്ര ൎസ്മ്രു ൎസ്മ്രൂ സ്മ്ര് സ്മ്രു്  സ്മ്ര഻ സ്മ്ര഼ സ്മ്രഀ സ്മ്രം സ്മ്രഃ

സ്ര സ്രു സ്രൂ സ്രൃ സ്രൄ സ്രൢ സ്രൣ ൎസ്ര ൎസ്രു ൎസ്രൂ സ്ര് സ്രു്  സ്ര഻ സ്ര഼ സ്രഀ സ്രം സ്രഃ

സ്ല സ്ലു സ്ലൂ സ്ലൃ സ്ലൄ സ്ലൢ സ്ലൣ ൎസ്ല ൎസ്ലു ൎസ്ലൂ സ്ല് സ്ലു്  സ്ല഻ സ്ല഼ സ്ലഀ സ്ലം സ്ലഃ

സ്സ സ്സു സ്സൂ സ്സൃ സ്സൄ സ്സൢ സ്സൣ ൎസ്സ ൎസ്സു ൎസ്സൂ സ്സ് സ്സു്  സ്സ഻ സ്സ഼ സ്സഀ സ്സം സ്സഃ

സ്സ്ര സ്സ്രു സ്സ്രൂ സ്സ്രൃ സ്സ്രൄ സ്സ്രൢ സ്സ്രൣ ൎസ്സ്ര ൎസ്സ്രു ൎസ്സ്രൂ സ്സ്ര് സ്സ്രു്  സ്സ്ര഻ സ്സ്ര഼ സ്സ്രഀ സ്സ്രം സ്സ്രഃ

സ്റ്റ സ്റ്റു സ്റ്റൂ സ്റ്റൃ സ്റ്റൄ സ്റ്റൢ സ്റ്റൣ ൎസ്റ്റ ൎസ്റ്റു ൎസ്റ്റൂ സ്റ്റ് സ്റ്റു്  സ്റ്റ഻ സ്റ്റ഼ സ്റ്റഀ സ്റ്റം സ്റ്റഃ

സ്റ്റ്ര സ്റ്റ്രു സ്റ്റ്രൂ സ്റ്റ്രൃ സ്റ്റ്രൄ സ്റ്റ്രൢ സ്റ്റ്രൣ ൎസ്റ്റ്ര ൎസ്റ്റ്രു ൎസ്റ്റ്രൂ സ്റ്റ്ര് സ്റ്റ്രു്  സ്റ്റ്ര഻ സ്റ്റ്ര഼ സ്റ്റ്രഀ സ്റ്റ്രം സ്റ്റ്രഃ

ഹ ഹു ഹൂ ഹൃ ഹൄ ഹൢ ഹൣ ൎഹ ൎഹു ൎഹൂ ഹ് ഹു്  ഹ഻ ഹ഼ ഹഀ ഹം ഹഃ

ഹ്ന ഹ്നു ഹ്നൂ ഹ്നൃ ഹ്നൄ ഹ്നൢ ഹ്നൣ ൎഹ്ന ൎഹ്നു ൎഹ്നൂ ഹ്ന് ഹ്നു്  ഹ്ന഻ ഹ്ന഼ ഹ്നഀ ഹ്നം ഹ്നഃ

ഹ്ന്ര ഹ്ന്രു ഹ്ന്രൂ ഹ്ന്രൃ ഹ്ന്രൄ ഹ്ന്രൢ ഹ്ന്രൣ ൎഹ്ന്ര ൎഹ്ന്രു ൎഹ്ന്രൂ ഹ്ന്ര് ഹ്ന്രു്  ഹ്ന്ര഻ ഹ്ന്ര഼ ഹ്ന്രഀ ഹ്ന്രം ഹ്ന്രഃ

ഹ്മ ഹ്മു ഹ്മൂ ഹ്മൃ ഹ്മൄ ഹ്മൢ ഹ്മൣ ൎഹ്മ ൎഹ്മു ൎഹ്മൂ ഹ്മ് ഹ്മു്  ഹ്മ഻ ഹ്മ഼ ഹ്മഀ ഹ്മം ഹ്മഃ

ഹ്മ്ര ഹ്മ്രു ഹ്മ്രൂ ഹ്മ്രൃ ഹ്മ്രൄ ഹ്മ്രൢ ഹ്മ്രൣ ൎഹ്മ്ര ൎഹ്മ്രു ൎഹ്മ്രൂ ഹ്മ്ര് ഹ്മ്രു്  ഹ്മ്ര഻ ഹ്മ്ര഼ ഹ്മ്രഀ ഹ്മ്രം ഹ്മ്രഃ

ഹ്ര ഹ്രു ഹ്രൂ ഹ്രൃ ഹ്രൄ ഹ്രൢ ഹ്രൣ ൎഹ്ര ൎഹ്രു ൎഹ്രൂ ഹ്ര് ഹ്രു്  ഹ്ര഻ ഹ്ര഼ ഹ്രഀ ഹ്രം ഹ്രഃ

ഹ്ല ഹ്ലു ഹ്ലൂ ഹ്ലൃ ഹ്ലൄ ഹ്ലൢ ഹ്ലൣ ൎഹ്ല ൎഹ്ലു ൎഹ്ലൂ ഹ്ല് ഹ്ലു്  ഹ്ല഻ ഹ്ല഼ ഹ്ലഀ ഹ്ലം ഹ്ലഃ

ള ളു ളൂ ളൃ ളൄ ളൢ ളൣ ൎള ൎളു ൎളൂ ള് ളു്  ള഻ ള഼ ളഀ ളം ളഃ

ള്ള ള്ളു ള്ളൂ ള്ളൃ ള്ളൄ ള്ളൢ ള്ളൣ ൎള്ള ൎള്ളു ൎള്ളൂ ള്ള് ള്ളു്  ള്ള഻ ള്ള഼ ള്ളഀ ള്ളം ള്ളഃ

ഴ ഴു ഴൂ ഴൃ ഴൄ ഴൢ ഴൣ ൎഴ ൎഴു ൎഴൂ ഴ് ഴു്  ഴ഻ ഴ഼ ഴഀ ഴം ഴഃ

ഴ്ക ഴ്കു ഴ്കൂ ഴ്കൃ ഴ്കൄ ഴ്കൢ ഴ്കൣ ൎഴ്ക ൎഴ്കു ൎഴ്കൂ ഴ്ക് ഴ്കു്  ഴ്ക഻ ഴ്ക഼ ഴ്കഀ ഴ്കം ഴ്കഃ

ഴ്ക്ക ഴ്ക്കു ഴ്ക്കൂ ഴ്ക്കൃ ഴ്ക്കൄ ഴ്ക്കൢ ഴ്ക്കൣ ൎഴ്ക്ക ൎഴ്ക്കു ൎഴ്ക്കൂ ഴ്ക്ക് ഴ്ക്കു്  ഴ്ക്ക഻ ഴ്ക്ക഼ ഴ്ക്കഀ ഴ്ക്കം ഴ്ക്കഃ

ഴ്ക്ക്ര ഴ്ക്ക്രു ഴ്ക്ക്രൂ ഴ്ക്ക്രൃ ഴ്ക്ക്രൄ ഴ്ക്ക്രൢ ഴ്ക്ക്രൣ ൎഴ്ക്ക്ര ൎഴ്ക്ക്രു ൎഴ്ക്ക്രൂ ഴ്ക്ക്ര് ഴ്ക്ക്രു്  ഴ്ക്ക്ര഻ ഴ്ക്ക്ര഼ ഴ്ക്ക്രഀ ഴ്ക്ക്രം ഴ്ക്ക്രഃ

ഴ്ക്ര ഴ്ക്രു ഴ്ക്രൂ ഴ്ക്രൃ ഴ്ക്രൄ ഴ്ക്രൢ ഴ്ക്രൣ ൎഴ്ക്ര ൎഴ്ക്രു ൎഴ്ക്രൂ ഴ്ക്ര് ഴ്ക്രു്  ഴ്ക്ര഻ ഴ്ക്ര഼ ഴ്ക്രഀ ഴ്ക്രം ഴ്ക്രഃ

ഴ്ച ഴ്ചു ഴ്ചൂ ഴ്ചൃ ഴ്ചൄ ഴ്ചൢ ഴ്ചൣ ൎഴ്ച ൎഴ്ചു ൎഴ്ചൂ ഴ്ച് ഴ്ചു്  ഴ്ച഻ ഴ്ച഼ ഴ്ചഀ ഴ്ചം ഴ്ചഃ

ഴ്ച്ച ഴ്ച്ചു ഴ്ച്ചൂ ഴ്ച്ചൃ ഴ്ച്ചൄ ഴ്ച്ചൢ ഴ്ച്ചൣ ൎഴ്ച്ച ൎഴ്ച്ചു ൎഴ്ച്ചൂ ഴ്ച്ച് ഴ്ച്ചു്  ഴ്ച്ച഻ ഴ്ച്ച഼ ഴ്ച്ചഀ ഴ്ച്ചം ഴ്ച്ചഃ

ഴ്ത ഴ്തു ഴ്തൂ ഴ്തൃ ഴ്തൄ ഴ്തൢ ഴ്തൣ ൎഴ്ത ൎഴ്തു ൎഴ്തൂ ഴ്ത് ഴ്തു്  ഴ്ത഻ ഴ്ത഼ ഴ്തഀ ഴ്തം ഴ്തഃ

ഴ്ത്ത ഴ്ത്തു ഴ്ത്തൂ ഴ്ത്തൃ ഴ്ത്തൄ ഴ്ത്തൢ ഴ്ത്തൣ ൎഴ്ത്ത ൎഴ്ത്തു ൎഴ്ത്തൂ ഴ്ത്ത് ഴ്ത്തു്  ഴ്ത്ത഻ ഴ്ത്ത഼ ഴ്ത്തഀ ഴ്ത്തം ഴ്ത്തഃ

ഴ്ന ഴ്നു ഴ്നൂ ഴ്നൃ ഴ്നൄ ഴ്നൢ ഴ്നൣ ൎഴ്ന ൎഴ്നു ൎഴ്നൂ ഴ്ന് ഴ്നു്  ഴ്ന഻ ഴ്ന഼ ഴ്നഀ ഴ്നം ഴ്നഃ

ഴ്ന്ന ഴ്ന്നു ഴ്ന്നൂ ഴ്ന്നൃ ഴ്ന്നൄ ഴ്ന്നൢ ഴ്ന്നൣ ൎഴ്ന്ന ൎഴ്ന്നു ൎഴ്ന്നൂ ഴ്ന്ന് ഴ്ന്നു്  ഴ്ന്ന഻ ഴ്ന്ന഼ ഴ്ന്നഀ ഴ്ന്നം ഴ്ന്നഃ

ഴ്ന്ര ഴ്ന്രു ഴ്ന്രൂ ഴ്ന്രൃ ഴ്ന്രൄ ഴ്ന്രൢ ഴ്ന്രൣ ൎഴ്ന്ര ൎഴ്ന്രു ൎഴ്ന്രൂ ഴ്ന്ര് ഴ്ന്രു്  ഴ്ന്ര഻ ഴ്ന്ര഼ ഴ്ന്രഀ ഴ്ന്രം ഴ്ന്രഃ

ഴ്ന്ന്ര ഴ്ന്ന്രു ഴ്ന്ന്രൂ ഴ്ന്ന്രൃ ഴ്ന്ന്രൄ ഴ്ന്ന്രൢ ഴ്ന്ന്രൣ ൎഴ്ന്ന്ര ൎഴ്ന്ന്രു ൎഴ്ന്ന്രൂ ഴ്ന്ന്ര് ഴ്ന്ന്രു്  ഴ്ന്ന്ര഻ ഴ്ന്ന്ര഼ ഴ്ന്ന്രഀ ഴ്ന്ന്രം ഴ്ന്ന്രഃ

ഴ്പ ഴ്പു ഴ്പൂ ഴ്പൃ ഴ്പൄ ഴ്പൢ ഴ്പൣ ൎഴ്പ ൎഴ്പു ൎഴ്പൂ ഴ്പ് ഴ്പു്  ഴ്പ഻ ഴ്പ഼ ഴ്പഀ ഴ്പം ഴ്പഃ

ഴ്പ്പ ഴ്പ്പു ഴ്പ്പൂ ഴ്പ്പൃ ഴ്പ്പൄ ഴ്പ്പൢ ഴ്പ്പൣ ൎഴ്പ്പ ൎഴ്പ്പു ൎഴ്പ്പൂ ഴ്പ്പ് ഴ്പ്പു്  ഴ്പ്പ഻ ഴ്പ്പ഼ ഴ്പ്പഀ ഴ്പ്പം ഴ്പ്പഃ

ഴ്പ്ര ഴ്പ്രു ഴ്പ്രൂ ഴ്പ്രൃ ഴ്പ്രൄ ഴ്പ്രൢ ഴ്പ്രൣ ൎഴ്പ്ര ൎഴ്പ്രു ൎഴ്പ്രൂ ഴ്പ്ര് ഴ്പ്രു്  ഴ്പ്ര഻ ഴ്പ്ര഼ ഴ്പ്രഀ ഴ്പ്രം ഴ്പ്രഃ

ഴ്പ്പ്ര ഴ്പ്പ്രു ഴ്പ്പ്രൂ ഴ്പ്പ്രൃ ഴ്പ്പ്രൄ ഴ്പ്പ്രൢ ഴ്പ്പ്രൣ ൎഴ്പ്പ്ര ൎഴ്പ്പ്രു ൎഴ്പ്പ്രൂ ഴ്പ്പ്ര് ഴ്പ്പ്രു്  ഴ്പ്പ്ര഻ ഴ്പ്പ്ര഼ ഴ്പ്പ്രഀ ഴ്പ്പ്രം ഴ്പ്പ്രഃ

ഴ്മ ഴ്മു ഴ്മൂ ഴ്മൃ ഴ്മൄ ഴ്മൢ ഴ്മൣ ൎഴ്മ ൎഴ്മു ൎഴ്മൂ ഴ്മ് ഴ്മു്  ഴ്മ഻ ഴ്മ഼ ഴ്മഀ ഴ്മം ഴ്മഃ

ഴ്മ്മ ഴ്മ്മു ഴ്മ്മൂ ഴ്മ്മൃ ഴ്മ്മൄ ഴ്മ്മൢ ഴ്മ്മൣ ൎഴ്മ്മ ൎഴ്മ്മു ൎഴ്മ്മൂ ഴ്മ്മ് ഴ്മ്മു്  ഴ്മ്മ഻ ഴ്മ്മ഼ ഴ്മ്മഀ ഴ്മ്മം ഴ്മ്മഃ

ഴ്മ്മ്ര ഴ്മ്മ്രു ഴ്മ്മ്രൂ ഴ്മ്മ്രൃ ഴ്മ്മ്രൄ ഴ്മ്മ്രൢ ഴ്മ്മ്രൣ ൎഴ്മ്മ്ര ൎഴ്മ്മ്രു ൎഴ്മ്മ്രൂ ഴ്മ്മ്ര് ഴ്മ്മ്രു്  ഴ്മ്മ്ര഻ ഴ്മ്മ്ര഼ ഴ്മ്മ്രഀ ഴ്മ്മ്രം ഴ്മ്മ്രഃ

ഴ്മ്ര ഴ്മ്രു ഴ്മ്രൂ ഴ്മ്രൃ ഴ്മ്രൄ ഴ്മ്രൢ ഴ്മ്രൣ ൎഴ്മ്ര ൎഴ്മ്രു ൎഴ്മ്രൂ ഴ്മ്ര് ഴ്മ്രു്  ഴ്മ്ര഻ ഴ്മ്ര഼ ഴ്മ്രഀ ഴ്മ്രം ഴ്മ്രഃ

ഴ്സ ഴ്സു ഴ്സൂ ഴ്സൃ ഴ്സൄ ഴ്സൢ ഴ്സൣ ൎഴ്സ ൎഴ്സു ൎഴ്സൂ ഴ്സ് ഴ്സു്  ഴ്സ഻ ഴ്സ഼ ഴ്സഀ ഴ്സം ഴ്സഃ

ഴ്സ്സ ഴ്സ്സു ഴ്സ്സൂ ഴ്സ്സൃ ഴ്സ്സൄ ഴ്സ്സൢ ഴ്സ്സൣ ൎഴ്സ്സ ൎഴ്സ്സു ൎഴ്സ്സൂ ഴ്സ്സ് ഴ്സ്സു്  ഴ്സ്സ഻ ഴ്സ്സ഼ ഴ്സ്സഀ ഴ്സ്സം ഴ്സ്സഃ

ഴ്സ്സ്ര ഴ്സ്സ്രു ഴ്സ്സ്രൂ ഴ്സ്സ്രൃ ഴ്സ്സ്രൄ ഴ്സ്സ്രൢ ഴ്സ്സ്രൣ ൎഴ്സ്സ്ര ൎഴ്സ്സ്രു ൎഴ്സ്സ്രൂ ഴ്സ്സ്ര് ഴ്സ്സ്രു്  ഴ്സ്സ്ര഻ ഴ്സ്സ്ര഼ ഴ്സ്സ്രഀ ഴ്സ്സ്രം ഴ്സ്സ്രഃ

ഴ്സ്ര ഴ്സ്രു ഴ്സ്രൂ ഴ്സ്രൃ ഴ്സ്രൄ ഴ്സ്രൢ ഴ്സ്രൣ ൎഴ്സ്ര ൎഴ്സ്രു ൎഴ്സ്രൂ ഴ്സ്ര് ഴ്സ്രു്  ഴ്സ്ര഻ ഴ്സ്ര഼ ഴ്സ്രഀ ഴ്സ്രം ഴ്സ്രഃ

റ റു റൂ റൃ റൄ റൢ റൣ ൎറ ൎറു ൎറൂ റ് റു്  റ഻ റ഼ റഀ റം റഃ

റ്റ റ്റു റ്റൂ റ്റൃ റ്റൄ റ്റൢ റ്റൣ ൎറ്റ ൎറ്റു ൎറ്റൂ റ്റ് റ്റു്  റ്റ഻ റ്റ഼ റ്റഀ റ്റം റ്റഃ

Dotreph ൎ   + various glyphs
--------------------

ക്
ൎക
ൎഠ
ൎപ
ൎത
ൎവ
അഥൎവ്വം
തീൎത്ഥം
തീൎത്ഥ്
ചൎക്ക
നിൎഗ്ഗളം
വൎത്തുളം
ചൎച്ച
ചൎച്ച്
മാൎച്ച്
മാൎത്ത
ഭാൎയ
ഭാൎയ്യ
ദുൎഗ്ഗുണം
അൎദ്ധവൃത്തം
നിൎലോഭം
നിൎല്ലോഭം
ഉൎവശി
ഉൎവ്വശി
തൎജമ
തൎജ്ജമ
സൂൎയന്‍
സൂൎയ്യന്‍
അൎജ്ജുനന്‍
മാൎജ്ജാരന്‍
--------------------
Rendering glyphs with r4 ( ്ര)
പ്ര
ഥ്ര
ഖ്ര
ക്സ്ര
ന്റ്ര
ബ്ര
പ്പ്ര
സ്പ്ര
സ്പ്രി
സ്പ്രേ
ഗ്ദ്ധ്രോ
ക്ത്ര
സബ്ഗ്രൂപ്പ്
മുഖ്യമന്ത്രി
സ്വാതന്ത്ര്യം
പ്രസിഡന്റ്
മഞ്ഞപ്പ്രസാദം
സാമ്രാജ്യം
വൈസ്രോയി
അബ്സ്റ്റ്രാക്റ്റ്
--------------------
ഒന്നു്
ചര്‍ച്ചയ്ക്കു്
ചര്‍ച്ചയ്ക്ക്‍
യൗവനം
ഔഷധം
കൌമുദി
സ്വപ്നം
--------------------
ആന്റണി
ആന്റി
എന്റുപ്പാപ്പ
എന്റെ
വിന്റേജ്
ആന്റോ
പാന്റ്
ഹെന്‍റി
എന്‍റിക്കലെക്സി
--------------------
കാറ്റ്
മുറ്റത്ത്
കാറ്റാടി
വറ്റില്ല
അറ്റുപോയി
ഏറ്റെടുത്തു
മാറ്റൊലി
ലക്ചററോട്
ലാറ്ററൈറ്റ്മണ്ണ്
--------------------
ക്സ
ബ്സ
ബ്സു
ക്ത
ക്കു
ക്കൂ
യ്ക
യ്ക്ക
യ്ക്കു
യ്ക്കൂ
യ്ത
യ്ക്കു
യ്ത്ത
യ്ത്തു
യ്ന
യ്നു
യ്ച
യ്ച്ച
യ്പ
യ്പ്പ
ല്ക
ല്ക്ക
ല്ക്കു
ല്തു
ല്ത്തൂ
ല്പ
ല്പു
ല്പ്പ
ല്ച
ല്ച്ച
ഷ്ക്ക
ഷ്ക്കു
ഷ്ഠൂ
ഴ്വ
ഭൄ
ഥൃ
ശ്ന
വ്ശ
ശ്ക
ശ്ക്ക
ശ്ദ
ശ്പ
ശ്ബ
ദ്ഗ
ദ്ന
ദ്ല
ദ്ബ
ദ്മ
സ്ഗ
സ്ഹ
ഹ്ത
പ്ത
പ്തു
സ്പ്ലേ
സ്ക
സ്ക്ല
കയ്പ്
കയ്പ്പ്
ആഴ്ച്ച
ആഴ്ച
അജ്മീര്‍
പച്ചപ്പയ്യ്
കല്ല്
ഉവ്വ്
കുറ്റ്യാടി
വയ്യ
യ്യു
വ്വു
വ്വൂ
യ്യൂ
ല്ലു
ല്ലൂ
എല്ലായ്പ്പോഴും
--------------------
'എനിയ്ക്ക്'
"അവള്‍ക്ക്"
‘പപ്പയുടെ സ്വന്തം അപ്പൂസ്’
“അവനി വാഴ്വ് കിനാവ്”
(ഇതിന്)
--------------------
പറയ്വോ?
പോയ്വര്വോ?
--------------------
Lorem ipsum dolor sit amet, consectetur adipisicing elit,
sed do eiusmod tempor incididunt ut labore et dolore magna
aliqua. Ut enim ad minim veniam, quis nostrud exercitation ullamco
laboris nisi ut aliquip ex ea commodo consequat. Duis aute irure
dolor in reprehenderit in voluptate velit esse cillum dolore eu
fugiat nulla pariatur. Excepteur sint occaecat cupidatat non
proident, sunt in culpa qui officia deserunt mollit anim id est laborum


ഭാഷാകമ്പ്യൂട്ടിങ്ങിന്റെ അടിത്തറ സ്വതന്ത്ര സോഫ്റ്റ്‌വെയറിലൂടെ
സന്തോഷ് തോട്ടിങ്ങല്‍

ഇക്കഴിഞ്ഞ ദിവസം ഗൂഗിള്‍ അവരുടെ മെഷീന്‍ ട്രാന്‍സ്‌ലേഷന്‍ സംവിധാനം
പുറത്തിറക്കിയപ്പോള്‍ പത്രങ്ങളൊക്കെ അതു് വാര്‍ത്തയാക്കിയിരുന്നു. ഒരു പത്രം ആ
സംവിധാനത്തിന്റെ ചിത്രം കൊടുത്തപ്പോള്‍ അതില്‍ മലയാളം കാണേണ്ടിയിരുന്നിടത്തു് വെറും
ചതുരക്കട്ടകളേ ഉണ്ടായിരുന്നുള്ളു. കമ്പ്യൂട്ടറില്‍ നിന്നും ചിത്രമെടുത്തപ്പോള്‍ ആ
കമ്പ്യൂട്ടറില്‍ മലയാളം കാണിക്കാന്‍ വേണ്ട ഫോണ്ടുകള്‍ ഇല്ലായിരുന്നു. ഒറ്റപ്പെട്ട
കാര്യമല്ല, ഇത്തരം വാര്‍ത്തകള്‍ കൊടുക്കുമ്പോള്‍ പത്രങ്ങള്‍ക്കു ഈ അമളി ഇടക്കു
സംഭവിയ്ക്കാറുണ്ടു്. പ്രൊഡകട് റിലീസുകള്‍ പ്രത്യേകിച്ചും ഗൂഗിളിന്റെയൊക്കെ
പ്രൊഡക്ട് അനൌണ്‍സ്മെന്റുകള്‍ പത്രങ്ങള്‍ക്കു എന്നും വലിയ വാര്‍ത്തയാണു്.
ഭാഷാകമ്പ്യൂട്ടിങ്ങ് മേഖലയില്‍ ഇങ്ങനെ "പ്രൊഡക്ടുകള്‍" വികസിപ്പിച്ചെടുക്കല്‍
ലക്ഷ്യമാക്കി കമ്പനികളും സര്‍ക്കാര്‍/അര്‍ദ്ധ സര്‍ക്കാര്‍ സ്ഥാപനങ്ങളും
പ്രവര്‍ത്തിയ്ക്കുന്നുണ്ടു്.  മലയാളത്തില്‍ ടെക്സ്റ്റ് ടു സ്പീച്ച് സംവിധാനം,
മെഷീന്‍ ട്രാന്‍സ്‌ലേഷന്‍ സംവിധാനം, ഗ്രാമര്‍ കറക്ഷന്‍, ഒപ്റ്റിക്കല്‍ കാരക്ടര്‍
റെക്കഗ്നീഷന്‍ ഒക്കെ കോടിക്കണക്കിനു രൂപ ചെലവാക്കി വര്‍ഷങ്ങളായി  പല സീഡാക് പോലുള്ള
സര്‍ക്കാര്‍ സംവിധാനങ്ങള്‍ കൊണ്ടുനടക്കുന്നുണ്ടു്. ഇവയൊക്കെ ഇപ്പോഴും ലക്ഷ്യങ്ങള്‍
ആയി തുടരുന്നുമുണ്ടു്.

പക്ഷേ രസകരമായ ഒരു വസ്തുത, ഒരു ഓപ്പറേറ്റിങ്ങ് സിസ്റ്റത്തില്‍ ഇവയൊക്കെ
പ്രവര്‍ത്തിപ്പിയ്ക്കുന്നതിനു മുമ്പേ, മലയാളം ചിത്രീകരിയ്ക്കുന്നതിനും ടൈപ്പു
ചെയ്യുന്നതിനുമുള്ള സംവിധാനങ്ങള്‍ വേണ്ടേ? ഭാഷാ കമ്പ്യൂട്ടിങ്ങിനു വേണ്ട ഈ അടിത്തറ
ആരാണു് തയ്യാറാക്കുന്നതു്? ആന്‍ഡ്രോയിഡ് ഫോണുകള്‍, ക്രോം, ഫയര്‍ഫോക്സ്,
ലിബ്രെഓഫീസ്, ഗ്നു/ലിനക്സ് എന്നിവയിലൊക്കെ പ+്+ല എന്നെഴുതിയാല്‍ പ്ല ആയി
ചിത്രീകരിച്ചുവരുന്നതെങ്ങനെ എന്നു ചിന്തിച്ചിട്ടുണ്ടോ? പ്ല മാത്രമല്ല എത്ര
സങ്കീര്‍ണ്ണമായ മലയാളം അക്ഷരങ്ങളും തെറ്റില്ലാതെ കാണാന്‍ കഴിയുന്നതും
നിങ്ങള്‍ക്കിഷ്ടമുള്ള ഫോണ്ടുകള്‍ തെരഞ്ഞെടുക്കാന്‍ സാധിയ്ക്കുന്നതും ആരുടെയൊക്കെ
പ്രയത്നങ്ങളുടെ ഫലമായിരിക്കും? തീര്‍ച്ചയായും ഇക്കാര്യത്തില്‍ കേരളഗവണ്‍മെന്റിനോ
കോടികള്‍ ഗവണ്‍മെന്റില്‍ നിന്നു പങ്കുപറ്റുന്ന ഏതെങ്കിലും സര്‍ക്കാര്‍/അര്‍ദ്ധ
സര്‍ക്കാര്‍  സ്ഥാപനങ്ങള്‍ക്കോ യാതൊരു പങ്കുമില്ല.  അറിഞ്ഞോ അറിയാതെയോ സ്വതന്ത്ര
സോഫ്റ്റ്‌വെയര്‍ ആശയത്തിന്റെ പ്രായോജകരാവുകയാണു് നാമെല്ലാം. നിരവധി മലയാളികളുടെ,
മേല്‍പ്പറഞ്ഞ സോഫ്റ്റ്‌വെയറുകളുടെ ഡെവലപ്പര്‍മാരുമായി ചേര്‍ന്നുള്ള
ലാഭേച്ഛയില്ലാത്ത പ്രയത്നങ്ങളുടെ ഫലമാണു് ഇതെല്ലാം. പക്ഷേ ഈ അടിത്തറ നിര്‍മ്മാണം
ഒരിക്കലും വാര്‍ത്തയാകാറുമില്ല. അറിയാതെപ്പോവാതിരിക്കാന്‍ സാങ്കേതികത പരമാവധി
കുറച്ച് ഇത്തിരി കാര്യങ്ങള്‍ പങ്കുവെയ്ക്കട്ടെ.

ഒരു  ഓപ്പറേറ്റിങ്ങ് സിസ്റ്റം ഒരു ഭാഷ പിന്തുണച്ചു തുടങ്ങുന്നതു് ഭാഷയെയും അതു്
പ്രതിനിധാനം ചെയ്യുന്ന സംസ്കാരിക ചുറ്റുപാടിനെയും നിര്‍വചിച്ചുകൊണ്ടാണു്. ലൊക്കേല്‍
എന്നാണു് ഇതിനു പറയുന്നതു്. ഭാഷയുടെ ഔദ്യോഗിക പേരു്, ചുരുക്കത്തിലുള്ള കോഡ്, ലിപി,
കറന്‍സി, ആഴ്ച, മാസം, വര്‍ഷം എന്നിവയ്ക്കു് ഭാഷയില്‍ പറയുന്ന പേരുകള്‍ എന്നിവയൊക്കെ
ഇതില്‍പെടും. 2001 ല്‍ സ്വതന്ത്ര സോഫ്റ്റ്‌വെയര്‍ പ്രസ്ഥാനം ഇന്ത്യയില്‍
തിരുവനന്തപുരത്തു് പ്രവര്‍ത്തിച്ചു തുടങ്ങുന്ന കാലത്താണു് ഈ നിര്‍വചനത്തിന്റെ ആദ്യ
പടികള്‍ നടക്കുന്നതു്. ഇതും കഴിഞ്ഞു് 2004 ഒക്കെ ആയപ്പോഴാണു് വിന്‍ഡോസ് മലയാളം
പിന്തുണയ്ക്കാന്‍ തുടങ്ങിയതു്.  2001 മുതല്‍ തന്നെ പ്രാദേശികവത്കരിക്കപ്പെട്ട
ഡെസ്ക് ടോപ്പ് ലഭ്യമാക്കാന്‍ സ്വതന്ത്ര സോഫ്റ്റ്‌വെയര്‍ പ്രവര്‍ത്തകര്‍ ശ്രമം
ആരംഭിച്ചിരുന്നു. മാല്‍ഓടിഎഫ് എന്ന പേരില്‍ ഒരു ഫോണ്ടും ഇതിനായി
തയ്യാറാക്കപ്പെട്ടിരുന്നു. ജെറോണ്‍ ഹെല്ലിംഗ്മാന്‍ ചെയ്ത മെറ്റാഫോണ്ടിന്റെ
അടിസ്ഥാനമാക്കിയായിരുന്നു ഇതു്. ഈ ഫോണ്ടു് പിന്നീട് കല്യാണി എന്ന പേരില്‍
അറിയപ്പെട്ടു.

അക്ഷരങ്ങളുടെ അകാരാദിക്രമവും തുല്യതയും നിര്‍വചിക്കുന്ന കൊളേഷന്‍ നിര്‍വചനമാണു്
അടുത്തപടി. ഒരു മലയാളം വാക്കു് അല്ലെങ്കില്‍ വാചകം സെര്‍ച്ച് ചെയ്യാന്‍
പ്രാപ്തമാക്കുന്നതു് ഇതു് വഴിയാണു്. നന്മ, നന്‍മ എന്നിവ തുല്യമാണോ, ല്‍ , ല
കഴിഞ്ഞാണോ ല-യ്ക്കു മുന്‍പാണോ വരേണ്ടതു് തുടങ്ങി പകുതി സാങ്കേതികവും പകുതി
ഭാഷാപരവുമായ രംഗമാണിതു്. 2008 ഒക്കെ ആയപ്പോഴാണു് ഇതിനു കൃത്യമായ ഒരു നിര്‍വചനം
സ്വതന്ത്ര സോഫ്റ്റ്‌വെയറുകളില്‍ വരുന്നതു്.

മലയാളഭാഷയുടെ ചിത്രീകരണം - റെന്‍ഡറിങ്ങ് - ആണു് ഈയടുത്തകാലത്തുമാത്രം
പ്രശ്നങ്ങളില്ലാത്തരൂപത്തിലെത്തിയതു്. മലയാള ഭാഷയുടെ ചിത്രീകരണം സങ്കീര്‍ണ്ണമാണു്.
പ + ് + ര ചേര്‍ന്നാല്‍ പ്ര ആവുമെന്നും, അതു് യുടെ ഇടത്തുള്ള ചിഹ്നമോ അല്ലെങ്കില്‍
പയുടെ താഴെക്കൂടി ഇടതുഭാഗത്തേയ്ക്കുള്ള ചുറ്റിക്കെട്ടലാവുമെന്നുമുള്ള
ചിത്രീകരണനിയമം ഒരുദാഹരണം മാത്രം. മലയാളം ഫോണ്ടുകളില്‍ കാലിഗ്രാഫി
ആര്‍ട്ടിസ്റ്റുകള്‍ വരച്ചിട്ടുള്ള അക്ഷരങ്ങള്‍ ഈ നിയമങ്ങളുടെ സഹായത്തോടെ
വിന്യസിക്കപ്പെടുമ്പോഴാണു് മലയാളം നമ്മള്‍ സ്ക്രീനില്‍ കാണുന്നതു്. 2004ല്‍
വിന്‍ഡോസ് XPയുടെ സര്‍വീസ് പാക്ക്‍ 3 ലാണു് വിന്‍ഡോസില്‍ ഈ ചിത്രീകരണം വന്നു
തുടങ്ങുന്നതു്. 2002 മുതല്‍ തന്നെ സ്വതന്ത്ര ഓപ്പറേറ്റിങ്ങ് സിസ്റ്റങ്ങളില്‍
ഇവയുണ്ടു്. പക്ഷേ മലയാളം ചിത്രീകരണത്തിന്റെ ഈ അടിസ്ഥാനസംവിധാനം വിന്‍ഡോസിലും
മാക്കിലും ഒക്കെ ഇപ്പോഴും തെറ്റായിതുടരുന്നുണ്ടു്. സ്വതന്ത്ര സോഫ്റ്റ്‌വെയറില്‍ ഇവ
കണ്ടെത്തുന്ന മുറയ്ക്കുതന്നെ പണ്ടേ പരിഹരിച്ചതുകൊണ്ടു് അവ ഇക്കാര്യത്തില്‍
മുന്നിട്ടു നില്‍ക്കുന്നുണ്ടു്. ഉദാഹരണത്തിനു ണ്ട എന്നതു് ണ + ് + ട ആണെന്ന നിയമം
വിന്‍ഡോസിന്റെ ഫോണ്ടുകള്‍ വളരെക്കാലം തെറ്റിച്ചിരുന്നു. ണ്‍+ട എഴുതിയാലേ ണ്ട
ആവുമായിരുന്നുള്ളൂ.   മ്പ എന്നതു് മ + ് + പ എന്നതിനുപകരം ഇപ്പോഴും മാക്കിലും
മറ്റും ന്‍+പ എന്നു് തെറ്റായ രീതിയിലാണു്. ന്റ = ന് + റ എന്നതു് വിന്‍ഡോസിന്റെ
ഫോണ്ടില്‍ ഇപ്പോഴും ന്‍+റ എന്നേ മനസ്സിലാക്കുന്നുള്ളു. അതുകൊണ്ടു് ഹെന്‍റി, ആന്റി
എന്നിവയെഴുതുമ്പോള്‍ പ്രശ്നമുണ്ടാകുന്നു. പറഞ്ഞുവരുന്നതു് സ്വതന്ത്ര
സോഫ്റ്റ്‌വെയറല്ലാത്ത ഓപ്പറേറ്റിങ്ങ് സിസ്റ്റങ്ങള്‍ക്കു് ഇവയൊന്നും പരിഹരിക്കാന്‍
കഴിയില്ല എന്നൊന്നുമല്ല. വര്‍ഷങ്ങളെടുത്തു് ആ ഓപ്പറേറ്റിങ്ങ് സിസ്റ്റങ്ങളും
പതുക്കെപതുക്കെ ഇവയൊക്കെ ശരിയാക്കുമായിരിക്കും. ജനകീയമായ ഇടപെടലിനും പെട്ടെന്നുള്ള
പുതുക്കലിനും സ്വതന്ത്ര സോഫ്റ്റ്‌വയര്‍ അനുവദിക്കുന്നതുകൊണ്ടാണു് മലയാളം
കമ്പ്യൂട്ടിങ്ങില്‍ സോഫ്റ്റ്‌‌വെയര്‍ കമ്പനികളുടെ ഔദാര്യത്തിനു
കാത്തുകിടക്കാതെത്തന്നെ മുന്നോട്ടുപോകാന്‍ കഴിയുന്നതു്.

മലയാളത്തിലുള്ള ജനപ്രിയ ഫോണ്ടുകളായ അഞ്ജലിഓള്‍ഡ് ലിപി, മീര, രചന, ദ്യുതി, ചിലങ്ക
തുടങ്ങിയ ഫോണ്ടുകളെല്ലാം സ്വതന്ത്ര സോഫ്റ്റ്‌വെയര്‍ പ്രവര്‍ത്തകരുടെ
പ്രവര്‍ത്തനഫലമാണു്. കൂടുതല്‍ ഫോണ്ടുകള്‍ മലയാളത്തിനു ലഭ്യമാക്കാന്‍ വേണ്ടി
ആര്‍ട്ടിസ്റ്റുകളെയും സാങ്കേതികപ്രവര്‍ത്തകരെയും ഒരുമിപ്പിച്ചുകൊണ്ടുള്ള
പ്രവര്‍ത്തനങ്ങള്‍ ഈയടുത്തു തുടങ്ങിയിട്ടുണ്ടു്.  ആയിരക്കണക്കിനു ഫോണ്ടുകള്‍
ഇംഗ്ലീഷിലൊക്കെ ഇന്നു ലഭ്യമാണെങ്കിലും ഉപയോഗയോഗ്യമായ മലയാളം ഫോണ്ടുകളുടെ എണ്ണം
പത്തോളമേയുള്ളൂ. ഇക്കാര്യങ്ങളില്‍ ഗവണ്‍മെന്റില്‍നിന്നോ മലയാളഭാഷയുടെ കാര്യത്തില്‍
ഉത്തരവാദപ്പെട്ട സ്ഥപനങ്ങളില്‍നിന്നോ പ്രത്യേകിച്ചൊന്നും പ്രതീക്ഷിക്കാതെ സ്വതന്ത്ര
സോഫ്റ്റ്‌വെയര്‍ പ്രവര്‍ത്തകര്‍തന്നെയാണു് മുന്നിട്ടിറങ്ങിയിരിക്കുന്നതു്.

മലയാളം ടൈപ്പുചെയ്യാനുള്ള ടൂളുകള്‍ - ഇന്‍പുട്ട് മെത്തേഡുകള്‍ ആണു് വേറൊരു അടിസ്ഥാന
ഘടകം. പ്രചാരത്തിലുള്ള ഇന്‍പുട്ട് ടൂളുകളെല്ലാം സ്വതന്ത്ര സോഫ്റ്റ്‌വെയര്‍
പ്രവര്‍ത്തകര്‍ വികസിപ്പിച്ചതാണു്. മൊബൈല്‍ ഫോണുകളിലെ മലയാളം ടൈപ്പു ചെയ്യാനുള്ള
ടൂളുകളുടെയും സ്ഥിതി അതുതന്നെ. വിന്‍ഡോസിലെ ഗൂഗിളിന്റെ ടൈപ്പിങ്ങ് ടൂള്‍ മാത്രമാണു്
ഇതിനൊരപവാദം.

മലയാളം കമ്പ്യൂട്ടിങ്ങിന്റെ അടിത്തറയായി മലയാളത്തിന്റെ വ്യാകരണവ്യവസ്ഥയെ
കമ്പ്യൂട്ടര്‍ അല്‍ഗോരിതങ്ങളിലേയ്ക്ക് ചിട്ടപ്പെടുത്തിയെടുക്കേണ്ടതുണ്ടു്.
സ്പെല്ലിങ്ങ് ചെക്കര്‍, ഗ്രാമര്‍ ചെക്കര്‍, മെച്ചപ്പെട്ട സെര്‍ച്ച്, മെഷീന്‍
ട്രാന്‍സ്‌ലേഷന്‍ എന്നിവയ്ക്കൊക്കെ ഇതാവശ്യമാണു്. ഇക്കാര്യത്തില്‍ വളരെയൊന്നും
നമ്മള്‍ മുന്നോട്ടുപോയിട്ടില്ല.  ഭാഷാവിദഗ്ദ്ധന്‍മാരുടെയും
സാങ്കേതികവിദഗ്ദ്ധന്‍മാരുടെയും ഒത്തൊരുമിച്ചുള്ള പ്രവര്‍ത്തനം ഇവിടെയും ആവശ്യമാണു്.
ലോകത്തിലെ പല രാജ്യങ്ങളും അവരുടെ ഭാഷയില്‍ ഇക്കാര്യങ്ങള്‍ അവിടത്തെ
സര്‍വ്വകലാശാലകളുടെ സഹായത്തോടെയാണു് ചെയ്യുന്നതു്. മലയാളം ഇക്കാര്യത്തില്‍
പിറകിലാണു്. ഇവിടെ ഭാഷാ കമ്പ്യൂട്ടിങ്ങ് ഒരു വിഷയം പോലും ആയിട്ടില്ല.

സന്നദ്ധപ്രവര്‍ത്തകരുടെയോ സോഫ്റ്റ്‌വെയര്‍ കമ്പനികളുടെ ബിസിനസ് താത്പര്യങ്ങളുടെ
പുറത്തോ മാത്രം മലയാളം കമ്പ്യൂട്ടിങ്ങ് മുന്നോട്ടുപോവുന്നതിനു ചില പരിമിതികള്‍
ഉണ്ടു്. അക്കാദമിക് ഗവേഷണവും ഉയര്‍ന്ന തോതിലുള്ള പ്രയത്നവും ആവശ്യമായ പല മേഖലകളിലും
ഭാഷാ കമ്പ്യൂട്ടിങ്ങ് പിന്നോട്ടുപോകൂം എന്നതാണു് ഒരു പ്രശ്നം. ഭാഷാവിദഗ്ദ്ധരുരെ ഈ
മേഖലയിലേയ്ക്കു കൂടുതല്‍ അടുപ്പിയ്ക്കാനുള്ള ശ്രമങ്ങള്‍ വേണം.
സന്നദ്ധപ്രവര്‍ത്തനമല്ലാതെ ഈ മേഖലയില്‍ പരിശീലനപരിപാടികള്‍ നടത്തിയും
ഉന്നതവിദ്യാഭ്യാസ സിലബസ്സില്‍ ഉള്‍പ്പെടുത്തുകയും ചെയ്തു് ഒരു തൊഴില്‍ മേഖല എന്ന
രീതിയിലും ഭാഷാ കമ്പ്യൂട്ടിങ്ങിനെ വളര്‍ത്തിയെടുത്താലേ വരുംകാലത്തേയ്ക്കു ഭാഷയെ
വളര്‍ത്തിയെടുക്കാന്‍ കഴിയൂ.
